^C:\USERS\ED\DESKTOP\NAOQI-SDK-2.1.4.13-WIN32-VS2010\DOC\DEV\CPP\EXAMPLES\CORE\SAYHELLOWORLD\CMAKELISTS.TXT
C:\USERS\ED\DESKTOP\NAOQI-SDK-2.1.4.13-WIN32-VS2010\DOC\DEV\CPP\EXAMPLES\CORE\SAYHELLOWORLD\BUILD-TOOLCHAIN\CMAKEFILES\3.6.1\CMAKESYSTEM.CMAKE
C:\USERS\ED\.LOCAL\SHARE\QI\TOOLCHAINS\TOOLCHAIN\TOOLCHAIN-TOOLCHAIN.CMAKE
C:\PROGRAM FILES\CMAKE\SHARE\CMAKE-3.6\MODULES\CMAKESYSTEMSPECIFICINITIALIZE.CMAKE
C:\PROGRAM FILES\CMAKE\SHARE\CMAKE-3.6\MODULES\CMAKEDETERMINECCOMPILER.CMAKE
C:\PROGRAM FILES\CMAKE\SHARE\CMAKE-3.6\MODULES\CMAKEDETERMINECOMPILER.CMAKE
C:\PROGRAM FILES\CMAKE\SHARE\CMAKE-3.6\MODULES\CMAKEDETERMINECOMPILERID.CMAKE
C:\PROGRAM FILES\CMAKE\SHARE\CMAKE-3.6\MODULES\CMAKECOMPILERIDDETECTION.CMAKE
C:\PROGRAM FILES\CMAKE\SHARE\CMAKE-3.6\MODULES\CMAKEPARSEARGUMENTS.CMAKE
C:\PROGRAM FILES\CMAKE\SHARE\CMAKE-3.6\MODULES\COMPILER\ADSP-DETERMINECOMPILER.CMAKE
C:\PROGRAM FILES\CMAKE\SHARE\CMAKE-3.6\MODULES\COMPILER\ARMCC-DETERMINECOMPILER.CMAKE
C:\PROGRAM FILES\CMAKE\SHARE\CMAKE-3.6\MODULES\COMPILER\APPLECLANG-DETERMINECOMPILER.CMAKE
C:\PROGRAM FILES\CMAKE\SHARE\CMAKE-3.6\MODULES\COMPILER\CLANG-DETERMINECOMPILERINTERNAL.CMAKE
C:\PROGRAM FILES\CMAKE\SHARE\CMAKE-3.6\MODULES\COMPILER\BORLAND-DETERMINECOMPILER.CMAKE
C:\PROGRAM FILES\CMAKE\SHARE\CMAKE-3.6\MODULES\COMPILER\BRUCE-C-DETERMINECOMPILER.CMAKE
C:\PROGRAM FILES\CMAKE\SHARE\CMAKE-3.6\MODULES\COMPILER\CLANG-DETERMINECOMPILER.CMAKE
C:\PROGRAM FILES\CMAKE\SHARE\CMAKE-3.6\MODULES\COMPILER\COMPAQ-C-DETERMINECOMPILER.CMAKE
C:\PROGRAM FILES\CMAKE\SHARE\CMAKE-3.6\MODULES\COMPILER\CRAY-DETERMINECOMPILER.CMAKE
C:\PROGRAM FILES\CMAKE\SHARE\CMAKE-3.6\MODULES\COMPILER\EMBARCADERO-DETERMINECOMPILER.CMAKE
C:\PROGRAM FILES\CMAKE\SHARE\CMAKE-3.6\MODULES\COMPILER\FUJITSU-DETERMINECOMPILER.CMAKE
C:\PROGRAM FILES\CMAKE\SHARE\CMAKE-3.6\MODULES\COMPILER\GHS-DETERMINECOMPILER.CMAKE
C:\PROGRAM FILES\CMAKE\SHARE\CMAKE-3.6\MODULES\COMPILER\GNU-DETERMINECOMPILER.CMAKE
C:\PROGRAM FILES\CMAKE\SHARE\CMAKE-3.6\MODULES\COMPILER\HP-C-DETERMINECOMPILER.CMAKE
C:\PROGRAM FILES\CMAKE\SHARE\CMAKE-3.6\MODULES\COMPILER\IAR-DETERMINECOMPILER.CMAKE
C:\PROGRAM FILES\CMAKE\SHARE\CMAKE-3.6\MODULES\COMPILER\INTEL-DETERMINECOMPILER.CMAKE
C:\PROGRAM FILES\CMAKE\SHARE\CMAKE-3.6\MODULES\COMPILER\MIPSPRO-DETERMINECOMPILER.CMAKE
C:\PROGRAM FILES\CMAKE\SHARE\CMAKE-3.6\MODULES\COMPILER\MSVC-DETERMINECOMPILER.CMAKE
C:\PROGRAM FILES\CMAKE\SHARE\CMAKE-3.6\MODULES\COMPILER\OPENWATCOM-DETERMINECOMPILER.CMAKE
C:\PROGRAM FILES\CMAKE\SHARE\CMAKE-3.6\MODULES\COMPILER\PGI-DETERMINECOMPILER.CMAKE
C:\PROGRAM FILES\CMAKE\SHARE\CMAKE-3.6\MODULES\COMPILER\PATHSCALE-DETERMINECOMPILER.CMAKE
C:\PROGRAM FILES\CMAKE\SHARE\CMAKE-3.6\MODULES\COMPILER\SCO-DETERMINECOMPILER.CMAKE
C:\PROGRAM FILES\CMAKE\SHARE\CMAKE-3.6\MODULES\COMPILER\SDCC-C-DETERMINECOMPILER.CMAKE
C:\PROGRAM FILES\CMAKE\SHARE\CMAKE-3.6\MODULES\COMPILER\SUNPRO-C-DETERMINECOMPILER.CMAKE
C:\PROGRAM FILES\CMAKE\SHARE\CMAKE-3.6\MODULES\COMPILER\TI-DETERMINECOMPILER.CMAKE
C:\PROGRAM FILES\CMAKE\SHARE\CMAKE-3.6\MODULES\COMPILER\TINYCC-C-DETERMINECOMPILER.CMAKE
C:\PROGRAM FILES\CMAKE\SHARE\CMAKE-3.6\MODULES\COMPILER\VISUALAGE-C-DETERMINECOMPILER.CMAKE
C:\PROGRAM FILES\CMAKE\SHARE\CMAKE-3.6\MODULES\COMPILER\IBMCPP-C-DETERMINEVERSIONINTERNAL.CMAKE
C:\PROGRAM FILES\CMAKE\SHARE\CMAKE-3.6\MODULES\COMPILER\WATCOM-DETERMINECOMPILER.CMAKE
C:\PROGRAM FILES\CMAKE\SHARE\CMAKE-3.6\MODULES\COMPILER\XL-C-DETERMINECOMPILER.CMAKE
C:\PROGRAM FILES\CMAKE\SHARE\CMAKE-3.6\MODULES\COMPILER\ZOS-C-DETERMINECOMPILER.CMAKE
C:\PROGRAM FILES\CMAKE\SHARE\CMAKE-3.6\MODULES\COMPILERID\VS-10.VCXPROJ.IN
C:\PROGRAM FILES\CMAKE\SHARE\CMAKE-3.6\MODULES\CMAKEFINDBINUTILS.CMAKE
C:\PROGRAM FILES\CMAKE\SHARE\CMAKE-3.6\MODULES\CMAKECCOMPILER.CMAKE.IN
C:\USERS\ED\DESKTOP\NAOQI-SDK-2.1.4.13-WIN32-VS2010\DOC\DEV\CPP\EXAMPLES\CORE\SAYHELLOWORLD\BUILD-TOOLCHAIN\CMAKEFILES\3.6.1\CMAKECCOMPILER.CMAKE
C:\PROGRAM FILES\CMAKE\SHARE\CMAKE-3.6\MODULES\CMAKEDETERMINECXXCOMPILER.CMAKE
C:\PROGRAM FILES\CMAKE\SHARE\CMAKE-3.6\MODULES\PLATFORM\WINDOWS-CXX.CMAKE
C:\PROGRAM FILES\CMAKE\SHARE\CMAKE-3.6\MODULES\COMPILER\COMEAU-CXX-DETERMINECOMPILER.CMAKE
C:\PROGRAM FILES\CMAKE\SHARE\CMAKE-3.6\MODULES\COMPILER\COMPAQ-CXX-DETERMINECOMPILER.CMAKE
C:\PROGRAM FILES\CMAKE\SHARE\CMAKE-3.6\MODULES\COMPILER\HP-CXX-DETERMINECOMPILER.CMAKE
C:\PROGRAM FILES\CMAKE\SHARE\CMAKE-3.6\MODULES\COMPILER\SUNPRO-CXX-DETERMINECOMPILER.CMAKE
C:\PROGRAM FILES\CMAKE\SHARE\CMAKE-3.6\MODULES\COMPILER\VISUALAGE-CXX-DETERMINECOMPILER.CMAKE
C:\PROGRAM FILES\CMAKE\SHARE\CMAKE-3.6\MODULES\COMPILER\IBMCPP-CXX-DETERMINEVERSIONINTERNAL.CMAKE
C:\PROGRAM FILES\CMAKE\SHARE\CMAKE-3.6\MODULES\COMPILER\XL-CXX-DETERMINECOMPILER.CMAKE
C:\PROGRAM FILES\CMAKE\SHARE\CMAKE-3.6\MODULES\COMPILER\ZOS-CXX-DETERMINECOMPILER.CMAKE
C:\PROGRAM FILES\CMAKE\SHARE\CMAKE-3.6\MODULES\CMAKECXXCOMPILER.CMAKE.IN
C:\USERS\ED\DESKTOP\NAOQI-SDK-2.1.4.13-WIN32-VS2010\DOC\DEV\CPP\EXAMPLES\CORE\SAYHELLOWORLD\BUILD-TOOLCHAIN\CMAKEFILES\3.6.1\CMAKECXXCOMPILER.CMAKE
C:\PROGRAM FILES\CMAKE\SHARE\CMAKE-3.6\MODULES\CMAKESYSTEMSPECIFICINFORMATION.CMAKE
C:\PROGRAM FILES\CMAKE\SHARE\CMAKE-3.6\MODULES\CMAKEGENERICSYSTEM.CMAKE
C:\PROGRAM FILES\CMAKE\SHARE\CMAKE-3.6\MODULES\PLATFORM\WINDOWS.CMAKE
C:\PROGRAM FILES\CMAKE\SHARE\CMAKE-3.6\MODULES\PLATFORM\WINDOWSPATHS.CMAKE
C:\PROGRAM FILES\CMAKE\SHARE\CMAKE-3.6\MODULES\CMAKECINFORMATION.CMAKE
C:\PROGRAM FILES\CMAKE\SHARE\CMAKE-3.6\MODULES\CMAKELANGUAGEINFORMATION.CMAKE
C:\PROGRAM FILES\CMAKE\SHARE\CMAKE-3.6\MODULES\PLATFORM\WINDOWS-MSVC-C.CMAKE
C:\PROGRAM FILES\CMAKE\SHARE\CMAKE-3.6\MODULES\PLATFORM\WINDOWS-MSVC.CMAKE
C:\USERS\ED\DESKTOP\NAOQI-SDK-2.1.4.13-WIN32-VS2010\DOC\DEV\CPP\EXAMPLES\CORE\SAYHELLOWORLD\BUILD-TOOLCHAIN\CMAKEFILES\3.6.1\CMAKERCCOMPILER.CMAKE
C:\PROGRAM FILES\CMAKE\SHARE\CMAKE-3.6\MODULES\CMAKERCINFORMATION.CMAKE
C:\PROGRAM FILES\CMAKE\SHARE\CMAKE-3.6\MODULES\CMAKECOMMONLANGUAGEINCLUDE.CMAKE
C:\PROGRAM FILES\CMAKE\SHARE\CMAKE-3.6\MODULES\CMAKETESTCCOMPILER.CMAKE
C:\PROGRAM FILES\CMAKE\SHARE\CMAKE-3.6\MODULES\CMAKETESTCOMPILERCOMMON.CMAKE
C:\PROGRAM FILES\CMAKE\SHARE\CMAKE-3.6\MODULES\CMAKEDETERMINECOMPILERABI.CMAKE
C:\PROGRAM FILES\CMAKE\SHARE\CMAKE-3.6\MODULES\CMAKEPARSEIMPLICITLINKINFO.CMAKE
C:\PROGRAM FILES\CMAKE\SHARE\CMAKE-3.6\MODULES\CMAKECCOMPILERABI.C
C:\PROGRAM FILES\CMAKE\SHARE\CMAKE-3.6\MODULES\CMAKEDETERMINECOMPILEFEATURES.CMAKE
C:\PROGRAM FILES\CMAKE\SHARE\CMAKE-3.6\MODULES\CMAKECXXINFORMATION.CMAKE
C:\PROGRAM FILES\CMAKE\SHARE\CMAKE-3.6\MODULES\COMPILER\MSVC-CXX.CMAKE
C:\PROGRAM FILES\CMAKE\SHARE\CMAKE-3.6\MODULES\PLATFORM\WINDOWS-MSVC-CXX.CMAKE
C:\PROGRAM FILES\CMAKE\SHARE\CMAKE-3.6\MODULES\CMAKETESTCXXCOMPILER.CMAKE
C:\PROGRAM FILES\CMAKE\SHARE\CMAKE-3.6\MODULES\CMAKECXXCOMPILERABI.CPP
C:\PROGRAM FILES\CMAKE\SHARE\CMAKE-3.6\MODULES\INTERNAL\FEATURETESTING.CMAKE
C:\PROGRAM FILES\CMAKE\SHARE\CMAKE-3.6\MODULES\COMPILER\MSVC-CXX-FEATURETESTS.CMAKE
C:\USERS\ED\DESKTOP\NAOQI-SDK-2.1.4.13-WIN32-VS2010\DOC\DEV\CPP\EXAMPLES\CORE\SAYHELLOWORLD\BUILD-TOOLCHAIN\CMAKEFILES\FEATURE_TESTS.CXX
C:\PYTHON27\LIB\SITE-PACKAGES\QIBUILD-3.12RC4-PY2.7.EGG\SHARE\CMAKE\QIBUILD\QIBUILD-CONFIG.CMAKE
C:\USERS\ED\DESKTOP\NAOQI-SDK-2.1.4.13-WIN32-VS2010\DOC\DEV\CPP\EXAMPLES\CORE\SAYHELLOWORLD\BUILD-TOOLCHAIN\DEPENDENCIES.CMAKE
C:\PYTHON27\LIB\SITE-PACKAGES\QIBUILD-3.12RC4-PY2.7.EGG\SHARE\CMAKE\QIBUILD\GENERAL.CMAKE
C:\PYTHON27\LIB\SITE-PACKAGES\QIBUILD-3.12RC4-PY2.7.EGG\SHARE\CMAKE\QIBUILD\VERSION.CMAKE
C:\PYTHON27\LIB\SITE-PACKAGES\QIBUILD-3.12RC4-PY2.7.EGG\SHARE\CMAKE\QIBUILD\LOG.CMAKE
C:\PYTHON27\LIB\SITE-PACKAGES\QIBUILD-3.12RC4-PY2.7.EGG\SHARE\CMAKE\QIBUILD\SET.CMAKE
C:\PYTHON27\LIB\SITE-PACKAGES\QIBUILD-3.12RC4-PY2.7.EGG\SHARE\CMAKE\QIBUILD\SUBDIRECTORY.CMAKE
C:\PYTHON27\LIB\SITE-PACKAGES\QIBUILD-3.12RC4-PY2.7.EGG\SHARE\CMAKE\QIBUILD\INTERNAL\LAYOUT.CMAKE
C:\PYTHON27\LIB\SITE-PACKAGES\QIBUILD-3.12RC4-PY2.7.EGG\SHARE\CMAKE\QIBUILD\INTERNAL\INSTALL.CMAKE
C:\PYTHON27\LIB\SITE-PACKAGES\QIBUILD-3.12RC4-PY2.7.EGG\SHARE\CMAKE\QIBUILD\INTERNAL\GLOB.CMAKE
C:\PYTHON27\LIB\SITE-PACKAGES\QIBUILD-3.12RC4-PY2.7.EGG\SHARE\CMAKE\QIBUILD\PYTHON.CMAKE
C:\PYTHON27\LIB\SITE-PACKAGES\QIBUILD-3.12RC4-PY2.7.EGG\SHARE\CMAKE\QIBUILD\FIND.CMAKE
C:\PROGRAM FILES\CMAKE\SHARE\CMAKE-3.6\MODULES\FINDPACKAGEHANDLESTANDARDARGS.CMAKE
C:\PROGRAM FILES\CMAKE\SHARE\CMAKE-3.6\MODULES\FINDPACKAGEMESSAGE.CMAKE
C:\PYTHON27\LIB\SITE-PACKAGES\QIBUILD-3.12RC4-PY2.7.EGG\SHARE\CMAKE\QIBUILD\FLAGS.CMAKE
C:\PYTHON27\LIB\SITE-PACKAGES\QIBUILD-3.12RC4-PY2.7.EGG\SHARE\CMAKE\QIBUILD\TESTS.CMAKE
C:\PYTHON27\LIB\SITE-PACKAGES\QIBUILD-3.12RC4-PY2.7.EGG\SHARE\CMAKE\QIBUILD\INTERNAL\TESTS.CMAKE
C:\PYTHON27\LIB\SITE-PACKAGES\QIBUILD-3.12RC4-PY2.7.EGG\SHARE\CMAKE\QIBUILD\INSTALL.CMAKE
C:\PYTHON27\LIB\SITE-PACKAGES\QIBUILD-3.12RC4-PY2.7.EGG\SHARE\CMAKE\QIBUILD\TARGET.CMAKE
C:\PYTHON27\LIB\SITE-PACKAGES\QIBUILD-3.12RC4-PY2.7.EGG\SHARE\CMAKE\QIBUILD\SUBMODULE.CMAKE
C:\PYTHON27\LIB\SITE-PACKAGES\QIBUILD-3.12RC4-PY2.7.EGG\SHARE\CMAKE\QIBUILD\STAGE.CMAKE
C:\PYTHON27\LIB\SITE-PACKAGES\QIBUILD-3.12RC4-PY2.7.EGG\SHARE\CMAKE\QIBUILD\INTERNAL\STAGE.CMAKE
C:\PYTHON27\LIB\SITE-PACKAGES\QIBUILD-3.12RC4-PY2.7.EGG\SHARE\CMAKE\QIBUILD\INTERNAL\LIST.CMAKE
C:\PYTHON27\LIB\SITE-PACKAGES\QIBUILD-3.12RC4-PY2.7.EGG\SHARE\CMAKE\QIBUILD\INTERNAL\USELIB.CMAKE
C:\PYTHON27\LIB\SITE-PACKAGES\QIBUILD-3.12RC4-PY2.7.EGG\SHARE\CMAKE\QIBUILD\OPTION.CMAKE
C:\PYTHON27\LIB\SITE-PACKAGES\QIBUILD-3.12RC4-PY2.7.EGG\SHARE\CMAKE\QIBUILD\CODEGEN.CMAKE
C:\PYTHON27\LIB\SITE-PACKAGES\QIBUILD-3.12RC4-PY2.7.EGG\SHARE\CMAKE\QIBUILD\GETTEXT.CMAKE
C:\PYTHON27\LIB\SITE-PACKAGES\QIBUILD-3.12RC4-PY2.7.EGG\SHARE\CMAKE\QIBUILD\GIT.CMAKE
C:\USERS\ED\DESKTOP\NAOQI-SDK-2.1.4.13-WIN32-VS2010\SHARE\CMAKE\ALCOMMON\ALCOMMON-CONFIG.CMAKE
C:\USERS\ED\DESKTOP\NAOQI-SDK-2.1.4.13-WIN32-VS2010\SHARE\CMAKE\ALVALUE\ALVALUE-CONFIG.CMAKE
C:\USERS\ED\DESKTOP\NAOQI-SDK-2.1.4.13-WIN32-VS2010\SHARE\CMAKE\ALERROR\ALERROR-CONFIG.CMAKE
C:\USERS\ED\DESKTOP\NAOQI-SDK-2.1.4.13-WIN32-VS2010\SHARE\CMAKE\QI\QI-CONFIG.CMAKE
C:\USERS\ED\DESKTOP\NAOQI-SDK-2.1.4.13-WIN32-VS2010\SHARE\CMAKE\BOOST_FILESYSTEM\BOOST_FILESYSTEM-CONFIG.CMAKE
C:\USERS\ED\DESKTOP\NAOQI-SDK-2.1.4.13-WIN32-VS2010\SHARE\CMAKE\BOOST_SYSTEM\BOOST_SYSTEM-CONFIG.CMAKE
C:\USERS\ED\DESKTOP\NAOQI-SDK-2.1.4.13-WIN32-VS2010\SHARE\CMAKE\BOOST_PROGRAM_OPTIONS\BOOST_PROGRAM_OPTIONS-CONFIG.CMAKE
C:\USERS\ED\DESKTOP\NAOQI-SDK-2.1.4.13-WIN32-VS2010\SHARE\CMAKE\BOOST_REGEX\BOOST_REGEX-CONFIG.CMAKE
C:\USERS\ED\DESKTOP\NAOQI-SDK-2.1.4.13-WIN32-VS2010\SHARE\CMAKE\BOOST_LOCALE\BOOST_LOCALE-CONFIG.CMAKE
C:\USERS\ED\DESKTOP\NAOQI-SDK-2.1.4.13-WIN32-VS2010\SHARE\CMAKE\BOOST_THREAD\BOOST_THREAD-CONFIG.CMAKE
C:\PYTHON27\LIB\SITE-PACKAGES\QIBUILD-3.12RC4-PY2.7.EGG\SHARE\CMAKE\QIBUILD\MODULES\PTHREAD-CONFIG.CMAKE
C:\PROGRAM FILES\CMAKE\SHARE\CMAKE-3.6\MODULES\FINDTHREADS.CMAKE
C:\PROGRAM FILES\CMAKE\SHARE\CMAKE-3.6\MODULES\CHECKLIBRARYEXISTS.CMAKE
C:\PROGRAM FILES\CMAKE\SHARE\CMAKE-3.6\MODULES\CHECKSYMBOLEXISTS.CMAKE
C:\PROGRAM FILES\CMAKE\SHARE\CMAKE-3.6\MODULES\CHECKINCLUDEFILE.CMAKE
C:\PROGRAM FILES\CMAKE\SHARE\CMAKE-3.6\MODULES\CHECKINCLUDEFILE.C.IN
C:\USERS\ED\DESKTOP\NAOQI-SDK-2.1.4.13-WIN32-VS2010\SHARE\CMAKE\BOOST_CHRONO\BOOST_CHRONO-CONFIG.CMAKE
C:\USERS\ED\DESKTOP\NAOQI-SDK-2.1.4.13-WIN32-VS2010\SHARE\CMAKE\BOOST_DATE_TIME\BOOST_DATE_TIME-CONFIG.CMAKE
C:\PYTHON27\LIB\SITE-PACKAGES\QIBUILD-3.12RC4-PY2.7.EGG\SHARE\CMAKE\QIBUILD\MODULES\WSOCK-CONFIG.CMAKE
C:\PYTHON27\LIB\SITE-PACKAGES\QIBUILD-3.12RC4-PY2.7.EGG\SHARE\CMAKE\QIBUILD\MODULES\IPHLPAPI-CONFIG.CMAKE
C:\PYTHON27\LIB\SITE-PACKAGES\QIBUILD-3.12RC4-PY2.7.EGG\SHARE\CMAKE\QIBUILD\MODULES\PSAPI-CONFIG.CMAKE
C:\USERS\ED\DESKTOP\NAOQI-SDK-2.1.4.13-WIN32-VS2010\SHARE\CMAKE\QIMESSAGING\QIMESSAGING-CONFIG.CMAKE
C:\USERS\ED\DESKTOP\NAOQI-SDK-2.1.4.13-WIN32-VS2010\SHARE\CMAKE\QITYPE\QITYPE-CONFIG.CMAKE
C:\USERS\ED\DESKTOP\NAOQI-SDK-2.1.4.13-WIN32-VS2010\SHARE\CMAKE\BOOST\BOOST-CONFIG.CMAKE
C:\PYTHON27\LIB\SITE-PACKAGES\QIBUILD-3.12RC4-PY2.7.EGG\SHARE\CMAKE\QIBUILD\MODULES\WSA-CONFIG.CMAKE
C:\USERS\ED\DESKTOP\NAOQI-SDK-2.1.4.13-WIN32-VS2010\SHARE\CMAKE\BOOST_SIGNALS\BOOST_SIGNALS-CONFIG.CMAKE
C:\USERS\ED\DESKTOP\NAOQI-SDK-2.1.4.13-WIN32-VS2010\SHARE\CMAKE\RTTOOLS\RTTOOLS-CONFIG.CMAKE
C:\USERS\ED\DESKTOP\NAOQI-SDK-2.1.4.13-WIN32-VS2010\SHARE\CMAKE\ALPROXIES\ALPROXIES-CONFIG.CMAKE
C:\USERS\ED\DESKTOP\NAOQI-SDK-2.1.4.13-WIN32-VS2010\DOC\DEV\CPP\EXAMPLES\CORE\SAYHELLOWORLD\QIPROJECT.XML
