^C:\USERS\ED\DOCUMENTS\VISUAL STUDIO 2015\PROJECTS\CONSOLEAPPLICATION2\CONSOLEAPPLICATION2\STDAFX.CPP
C:\WINDOWS\GLOBALIZATION\SORTING\SORTDEFAULT.NLS
C:\PROGRAM FILES (X86)\MICROSOFT VISUAL STUDIO 14.0\VC\BIN\1033\CLUI.DLL
C:\WINDOWS\SYSTEM32\RSAENH.DLL
C:\WINDOWS\SYSTEM32\TZRES.DLL
C:\USERS\ED\DOCUMENTS\VISUAL STUDIO 2015\PROJECTS\CONSOLEAPPLICATION2\CONSOLEAPPLICATION2\STDAFX.H
C:\USERS\ED\DOCUMENTS\VISUAL STUDIO 2015\PROJECTS\CONSOLEAPPLICATION2\CONSOLEAPPLICATION2\TARGETVER.H
C:\PROGRAM FILES (X86)\WINDOWS KITS\8.1\INCLUDE\SHARED\SDKDDKVER.H
C:\PROGRAM FILES (X86)\WINDOWS KITS\10\INCLUDE\10.0.10240.0\UCRT\STDIO.H
C:\PROGRAM FILES (X86)\WINDOWS KITS\10\INCLUDE\10.0.10240.0\UCRT\CORECRT.H
C:\PROGRAM FILES (X86)\MICROSOFT VISUAL STUDIO 14.0\VC\INCLUDE\VCRUNTIME.H
C:\PROGRAM FILES (X86)\MICROSOFT VISUAL STUDIO 14.0\VC\INCLUDE\SAL.H
C:\PROGRAM FILES (X86)\MICROSOFT VISUAL STUDIO 14.0\VC\INCLUDE\CONCURRENCYSAL.H
C:\PROGRAM FILES (X86)\MICROSOFT VISUAL STUDIO 14.0\VC\INCLUDE\VADEFS.H
C:\PROGRAM FILES (X86)\WINDOWS KITS\10\INCLUDE\10.0.10240.0\UCRT\CORECRT_WSTDIO.H
C:\PROGRAM FILES (X86)\WINDOWS KITS\10\INCLUDE\10.0.10240.0\UCRT\CORECRT_STDIO_CONFIG.H
C:\PROGRAM FILES (X86)\WINDOWS KITS\10\INCLUDE\10.0.10240.0\UCRT\TCHAR.H
C:\PROGRAM FILES (X86)\WINDOWS KITS\10\INCLUDE\10.0.10240.0\UCRT\WCHAR.H
C:\PROGRAM FILES (X86)\WINDOWS KITS\10\INCLUDE\10.0.10240.0\UCRT\CORECRT_MEMCPY_S.H
C:\PROGRAM FILES (X86)\WINDOWS KITS\10\INCLUDE\10.0.10240.0\UCRT\ERRNO.H
C:\PROGRAM FILES (X86)\MICROSOFT VISUAL STUDIO 14.0\VC\INCLUDE\VCRUNTIME_STRING.H
C:\PROGRAM FILES (X86)\WINDOWS KITS\10\INCLUDE\10.0.10240.0\UCRT\CORECRT_WCONIO.H
C:\PROGRAM FILES (X86)\WINDOWS KITS\10\INCLUDE\10.0.10240.0\UCRT\CORECRT_WCTYPE.H
C:\PROGRAM FILES (X86)\WINDOWS KITS\10\INCLUDE\10.0.10240.0\UCRT\CORECRT_WDIRECT.H
C:\PROGRAM FILES (X86)\WINDOWS KITS\10\INCLUDE\10.0.10240.0\UCRT\CORECRT_WIO.H
C:\PROGRAM FILES (X86)\WINDOWS KITS\10\INCLUDE\10.0.10240.0\UCRT\CORECRT_SHARE.H
C:\PROGRAM FILES (X86)\WINDOWS KITS\10\INCLUDE\10.0.10240.0\UCRT\CORECRT_WPROCESS.H
C:\PROGRAM FILES (X86)\WINDOWS KITS\10\INCLUDE\10.0.10240.0\UCRT\CORECRT_WSTDLIB.H
C:\PROGRAM FILES (X86)\WINDOWS KITS\10\INCLUDE\10.0.10240.0\UCRT\CORECRT_WSTRING.H
C:\PROGRAM FILES (X86)\WINDOWS KITS\10\INCLUDE\10.0.10240.0\UCRT\CORECRT_WTIME.H
C:\PROGRAM FILES (X86)\WINDOWS KITS\10\INCLUDE\10.0.10240.0\UCRT\SYS\STAT.H
C:\PROGRAM FILES (X86)\WINDOWS KITS\10\INCLUDE\10.0.10240.0\UCRT\SYS\TYPES.H
C:\PROGRAM FILES (X86)\WINDOWS KITS\10\INCLUDE\10.0.10240.0\UCRT\STRING.H
C:\PROGRAM FILES (X86)\WINDOWS KITS\10\INCLUDE\10.0.10240.0\UCRT\CORECRT_MEMORY.H
C:\PROGRAM FILES (X86)\WINDOWS KITS\10\INCLUDE\10.0.10240.0\UCRT\MBSTRING.H
^C:\USERS\ED\DOCUMENTS\VISUAL STUDIO 2015\PROJECTS\CONSOLEAPPLICATION2\CONSOLEAPPLICATION2\CONSOLEAPPLICATION2.CPP
C:\WINDOWS\GLOBALIZATION\SORTING\SORTDEFAULT.NLS
C:\PROGRAM FILES (X86)\MICROSOFT VISUAL STUDIO 14.0\VC\BIN\1033\CLUI.DLL
C:\USERS\ED\DOCUMENTS\VISUAL STUDIO 2015\PROJECTS\CONSOLEAPPLICATION2\CONSOLEAPPLICATION2\DEBUG\CONSOLEAPPLICATION2.PCH
C:\WINDOWS\SYSTEM32\RSAENH.DLL
C:\WINDOWS\SYSTEM32\TZRES.DLL
C:\PROGRAM FILES (X86)\WINDOWS KITS\8.1\INCLUDE\UM\WINDOWS.H
C:\PROGRAM FILES (X86)\WINDOWS KITS\8.1\INCLUDE\SHARED\WINAPIFAMILY.H
C:\PROGRAM FILES (X86)\MICROSOFT VISUAL STUDIO 14.0\VC\INCLUDE\EXCPT.H
C:\PROGRAM FILES (X86)\MICROSOFT VISUAL STUDIO 14.0\VC\INCLUDE\VCRUNTIME.H
C:\PROGRAM FILES (X86)\MICROSOFT VISUAL STUDIO 14.0\VC\INCLUDE\STDARG.H
C:\PROGRAM FILES (X86)\WINDOWS KITS\8.1\INCLUDE\SHARED\WINDEF.H
C:\PROGRAM FILES (X86)\WINDOWS KITS\8.1\INCLUDE\SHARED\MINWINDEF.H
C:\PROGRAM FILES (X86)\WINDOWS KITS\8.1\INCLUDE\SHARED\SPECSTRINGS.H
C:\PROGRAM FILES (X86)\WINDOWS KITS\8.1\INCLUDE\SHARED\SPECSTRINGS_STRICT.H
C:\PROGRAM FILES (X86)\WINDOWS KITS\8.1\INCLUDE\SHARED\SPECSTRINGS_UNDEF.H
C:\PROGRAM FILES (X86)\WINDOWS KITS\8.1\INCLUDE\SHARED\DRIVERSPECS.H
C:\PROGRAM FILES (X86)\WINDOWS KITS\8.1\INCLUDE\SHARED\SDV_DRIVERSPECS.H
C:\PROGRAM FILES (X86)\WINDOWS KITS\8.1\INCLUDE\UM\WINNT.H
C:\PROGRAM FILES (X86)\WINDOWS KITS\10\INCLUDE\10.0.10240.0\UCRT\CTYPE.H
C:\PROGRAM FILES (X86)\WINDOWS KITS\8.1\INCLUDE\SHARED\KERNELSPECS.H
C:\PROGRAM FILES (X86)\WINDOWS KITS\8.1\INCLUDE\SHARED\BASETSD.H
C:\PROGRAM FILES (X86)\WINDOWS KITS\8.1\INCLUDE\SHARED\GUIDDEF.H
C:\PROGRAM FILES (X86)\WINDOWS KITS\10\INCLUDE\10.0.10240.0\UCRT\STRING.H
C:\PROGRAM FILES (X86)\WINDOWS KITS\10\INCLUDE\10.0.10240.0\UCRT\CORECRT_MEMORY.H
C:\PROGRAM FILES (X86)\WINDOWS KITS\8.1\INCLUDE\SHARED\PSHPACK4.H
C:\PROGRAM FILES (X86)\WINDOWS KITS\8.1\INCLUDE\SHARED\POPPACK.H
C:\PROGRAM FILES (X86)\WINDOWS KITS\8.1\INCLUDE\SHARED\PSHPACK2.H
C:\PROGRAM FILES (X86)\WINDOWS KITS\8.1\INCLUDE\SHARED\PSHPACK8.H
C:\PROGRAM FILES (X86)\WINDOWS KITS\8.1\INCLUDE\SHARED\APISET.H
C:\PROGRAM FILES (X86)\WINDOWS KITS\8.1\INCLUDE\SHARED\KTMTYPES.H
C:\PROGRAM FILES (X86)\WINDOWS KITS\8.1\INCLUDE\UM\WINBASE.H
C:\PROGRAM FILES (X86)\WINDOWS KITS\8.1\INCLUDE\SHARED\APISETCCONV.H
C:\PROGRAM FILES (X86)\WINDOWS KITS\8.1\INCLUDE\UM\MINWINBASE.H
C:\PROGRAM FILES (X86)\WINDOWS KITS\8.1\INCLUDE\UM\PROCESSENV.H
C:\PROGRAM FILES (X86)\WINDOWS KITS\8.1\INCLUDE\UM\FILEAPI.H
C:\PROGRAM FILES (X86)\WINDOWS KITS\8.1\INCLUDE\UM\DEBUGAPI.H
C:\PROGRAM FILES (X86)\WINDOWS KITS\8.1\INCLUDE\UM\UTILAPISET.H
C:\PROGRAM FILES (X86)\WINDOWS KITS\8.1\INCLUDE\UM\HANDLEAPI.H
C:\PROGRAM FILES (X86)\WINDOWS KITS\8.1\INCLUDE\UM\ERRHANDLINGAPI.H
C:\PROGRAM FILES (X86)\WINDOWS KITS\8.1\INCLUDE\UM\FIBERSAPI.H
C:\PROGRAM FILES (X86)\WINDOWS KITS\8.1\INCLUDE\UM\NAMEDPIPEAPI.H
C:\PROGRAM FILES (X86)\WINDOWS KITS\8.1\INCLUDE\UM\PROFILEAPI.H
C:\PROGRAM FILES (X86)\WINDOWS KITS\8.1\INCLUDE\UM\HEAPAPI.H
C:\PROGRAM FILES (X86)\WINDOWS KITS\8.1\INCLUDE\UM\IOAPISET.H
C:\PROGRAM FILES (X86)\WINDOWS KITS\8.1\INCLUDE\UM\SYNCHAPI.H
C:\PROGRAM FILES (X86)\WINDOWS KITS\8.1\INCLUDE\UM\INTERLOCKEDAPI.H
C:\PROGRAM FILES (X86)\WINDOWS KITS\8.1\INCLUDE\UM\PROCESSTHREADSAPI.H
C:\PROGRAM FILES (X86)\WINDOWS KITS\8.1\INCLUDE\UM\SYSINFOAPI.H
C:\PROGRAM FILES (X86)\WINDOWS KITS\8.1\INCLUDE\UM\MEMORYAPI.H
C:\PROGRAM FILES (X86)\WINDOWS KITS\8.1\INCLUDE\UM\THREADPOOLLEGACYAPISET.H
C:\PROGRAM FILES (X86)\WINDOWS KITS\8.1\INCLUDE\UM\THREADPOOLAPISET.H
C:\PROGRAM FILES (X86)\WINDOWS KITS\8.1\INCLUDE\UM\BEMAPISET.H
C:\PROGRAM FILES (X86)\WINDOWS KITS\8.1\INCLUDE\UM\JOBAPI.H
C:\PROGRAM FILES (X86)\WINDOWS KITS\8.1\INCLUDE\UM\WOW64APISET.H
C:\PROGRAM FILES (X86)\WINDOWS KITS\8.1\INCLUDE\UM\LIBLOADERAPI.H
C:\PROGRAM FILES (X86)\WINDOWS KITS\8.1\INCLUDE\UM\SECURITYBASEAPI.H
C:\PROGRAM FILES (X86)\WINDOWS KITS\8.1\INCLUDE\UM\NAMESPACEAPI.H
C:\PROGRAM FILES (X86)\WINDOWS KITS\8.1\INCLUDE\UM\SYSTEMTOPOLOGYAPI.H
C:\PROGRAM FILES (X86)\WINDOWS KITS\8.1\INCLUDE\UM\PROCESSTOPOLOGYAPI.H
C:\PROGRAM FILES (X86)\WINDOWS KITS\8.1\INCLUDE\UM\SECURITYAPPCONTAINER.H
C:\PROGRAM FILES (X86)\WINDOWS KITS\8.1\INCLUDE\UM\REALTIMEAPISET.H
C:\PROGRAM FILES (X86)\WINDOWS KITS\8.1\INCLUDE\SHARED\WINERROR.H
C:\PROGRAM FILES (X86)\WINDOWS KITS\8.1\INCLUDE\UM\TIMEZONEAPI.H
C:\PROGRAM FILES (X86)\WINDOWS KITS\8.1\INCLUDE\UM\WINGDI.H
C:\PROGRAM FILES (X86)\WINDOWS KITS\8.1\INCLUDE\SHARED\PSHPACK1.H
C:\PROGRAM FILES (X86)\WINDOWS KITS\8.1\INCLUDE\UM\WINUSER.H
C:\PROGRAM FILES (X86)\WINDOWS KITS\8.1\INCLUDE\SHARED\TVOUT.H
C:\PROGRAM FILES (X86)\WINDOWS KITS\8.1\INCLUDE\UM\WINNLS.H
C:\PROGRAM FILES (X86)\WINDOWS KITS\8.1\INCLUDE\UM\DATETIMEAPI.H
C:\PROGRAM FILES (X86)\WINDOWS KITS\8.1\INCLUDE\UM\STRINGAPISET.H
C:\PROGRAM FILES (X86)\WINDOWS KITS\8.1\INCLUDE\UM\WINCON.H
C:\PROGRAM FILES (X86)\WINDOWS KITS\8.1\INCLUDE\UM\CONSOLEAPI.H
C:\PROGRAM FILES (X86)\WINDOWS KITS\8.1\INCLUDE\UM\WINVER.H
C:\PROGRAM FILES (X86)\WINDOWS KITS\8.1\INCLUDE\UM\VERRSRC.H
C:\PROGRAM FILES (X86)\WINDOWS KITS\8.1\INCLUDE\UM\WINREG.H
C:\PROGRAM FILES (X86)\WINDOWS KITS\8.1\INCLUDE\UM\REASON.H
C:\PROGRAM FILES (X86)\WINDOWS KITS\8.1\INCLUDE\UM\WINNETWK.H
C:\PROGRAM FILES (X86)\WINDOWS KITS\8.1\INCLUDE\SHARED\WNNC.H
C:\PROGRAM FILES (X86)\WINDOWS KITS\8.1\INCLUDE\SHARED\CDERR.H
C:\PROGRAM FILES (X86)\WINDOWS KITS\8.1\INCLUDE\UM\DDE.H
C:\PROGRAM FILES (X86)\WINDOWS KITS\8.1\INCLUDE\UM\DDEML.H
C:\PROGRAM FILES (X86)\WINDOWS KITS\8.1\INCLUDE\UM\DLGS.H
C:\PROGRAM FILES (X86)\WINDOWS KITS\8.1\INCLUDE\UM\LZEXPAND.H
C:\PROGRAM FILES (X86)\WINDOWS KITS\8.1\INCLUDE\UM\MMSYSTEM.H
C:\PROGRAM FILES (X86)\WINDOWS KITS\8.1\INCLUDE\UM\MMSYSCOM.H
C:\PROGRAM FILES (X86)\WINDOWS KITS\8.1\INCLUDE\UM\MCIAPI.H
C:\PROGRAM FILES (X86)\WINDOWS KITS\8.1\INCLUDE\UM\MMISCAPI.H
C:\PROGRAM FILES (X86)\WINDOWS KITS\8.1\INCLUDE\UM\MMISCAPI2.H
C:\PROGRAM FILES (X86)\WINDOWS KITS\8.1\INCLUDE\UM\PLAYSOUNDAPI.H
C:\PROGRAM FILES (X86)\WINDOWS KITS\8.1\INCLUDE\UM\MMEAPI.H
C:\PROGRAM FILES (X86)\WINDOWS KITS\8.1\INCLUDE\UM\TIMEAPI.H
C:\PROGRAM FILES (X86)\WINDOWS KITS\8.1\INCLUDE\UM\JOYSTICKAPI.H
C:\PROGRAM FILES (X86)\WINDOWS KITS\8.1\INCLUDE\UM\NB30.H
C:\PROGRAM FILES (X86)\WINDOWS KITS\8.1\INCLUDE\SHARED\RPC.H
C:\PROGRAM FILES (X86)\WINDOWS KITS\8.1\INCLUDE\SHARED\RPCDCE.H
C:\PROGRAM FILES (X86)\WINDOWS KITS\8.1\INCLUDE\SHARED\RPCDCEP.H
C:\PROGRAM FILES (X86)\WINDOWS KITS\8.1\INCLUDE\UM\RPCNSI.H
C:\PROGRAM FILES (X86)\WINDOWS KITS\8.1\INCLUDE\SHARED\RPCNTERR.H
C:\PROGRAM FILES (X86)\WINDOWS KITS\8.1\INCLUDE\SHARED\RPCASYNC.H
C:\PROGRAM FILES (X86)\WINDOWS KITS\8.1\INCLUDE\UM\SHELLAPI.H
C:\PROGRAM FILES (X86)\WINDOWS KITS\8.1\INCLUDE\UM\WINPERF.H
C:\PROGRAM FILES (X86)\WINDOWS KITS\8.1\INCLUDE\UM\WINSOCK.H
C:\PROGRAM FILES (X86)\WINDOWS KITS\8.1\INCLUDE\SHARED\INADDR.H
C:\PROGRAM FILES (X86)\WINDOWS KITS\8.1\INCLUDE\UM\WINCRYPT.H
C:\PROGRAM FILES (X86)\WINDOWS KITS\8.1\INCLUDE\SHARED\BCRYPT.H
C:\PROGRAM FILES (X86)\WINDOWS KITS\8.1\INCLUDE\UM\NCRYPT.H
C:\PROGRAM FILES (X86)\WINDOWS KITS\8.1\INCLUDE\UM\DPAPI.H
C:\PROGRAM FILES (X86)\WINDOWS KITS\8.1\INCLUDE\UM\WINEFS.H
C:\PROGRAM FILES (X86)\WINDOWS KITS\8.1\INCLUDE\UM\WINSCARD.H
C:\PROGRAM FILES (X86)\WINDOWS KITS\8.1\INCLUDE\SHARED\WTYPES.H
C:\PROGRAM FILES (X86)\WINDOWS KITS\8.1\INCLUDE\SHARED\RPCNDR.H
C:\PROGRAM FILES (X86)\WINDOWS KITS\8.1\INCLUDE\UM\RPCNSIP.H
C:\PROGRAM FILES (X86)\WINDOWS KITS\8.1\INCLUDE\SHARED\RPCSAL.H
C:\PROGRAM FILES (X86)\WINDOWS KITS\8.1\INCLUDE\SHARED\WTYPESBASE.H
C:\PROGRAM FILES (X86)\WINDOWS KITS\8.1\INCLUDE\UM\WINIOCTL.H
C:\PROGRAM FILES (X86)\WINDOWS KITS\8.1\INCLUDE\SHARED\WINSMCRD.H
C:\PROGRAM FILES (X86)\WINDOWS KITS\8.1\INCLUDE\UM\WINSPOOL.H
C:\PROGRAM FILES (X86)\WINDOWS KITS\8.1\INCLUDE\UM\PRSHT.H
C:\PROGRAM FILES (X86)\WINDOWS KITS\8.1\INCLUDE\UM\OLE2.H
C:\PROGRAM FILES (X86)\WINDOWS KITS\8.1\INCLUDE\UM\OBJBASE.H
C:\PROGRAM FILES (X86)\WINDOWS KITS\8.1\INCLUDE\UM\COMBASEAPI.H
C:\PROGRAM FILES (X86)\WINDOWS KITS\10\INCLUDE\10.0.10240.0\UCRT\STDLIB.H
C:\PROGRAM FILES (X86)\WINDOWS KITS\10\INCLUDE\10.0.10240.0\UCRT\CORECRT_MALLOC.H
C:\PROGRAM FILES (X86)\WINDOWS KITS\10\INCLUDE\10.0.10240.0\UCRT\CORECRT_SEARCH.H
C:\PROGRAM FILES (X86)\WINDOWS KITS\10\INCLUDE\10.0.10240.0\UCRT\STDDEF.H
C:\PROGRAM FILES (X86)\MICROSOFT VISUAL STUDIO 14.0\VC\INCLUDE\LIMITS.H
C:\PROGRAM FILES (X86)\WINDOWS KITS\8.1\INCLUDE\UM\UNKNWNBASE.H
C:\PROGRAM FILES (X86)\WINDOWS KITS\8.1\INCLUDE\UM\OBJIDLBASE.H
C:\PROGRAM FILES (X86)\WINDOWS KITS\8.1\INCLUDE\UM\CGUID.H
C:\PROGRAM FILES (X86)\WINDOWS KITS\8.1\INCLUDE\UM\OBJIDL.H
C:\PROGRAM FILES (X86)\WINDOWS KITS\8.1\INCLUDE\UM\UNKNWN.H
C:\PROGRAM FILES (X86)\WINDOWS KITS\8.1\INCLUDE\UM\URLMON.H
C:\PROGRAM FILES (X86)\WINDOWS KITS\8.1\INCLUDE\UM\OLEIDL.H
C:\PROGRAM FILES (X86)\WINDOWS KITS\8.1\INCLUDE\UM\SERVPROV.H
C:\PROGRAM FILES (X86)\WINDOWS KITS\8.1\INCLUDE\UM\MSXML.H
C:\PROGRAM FILES (X86)\WINDOWS KITS\8.1\INCLUDE\UM\OAIDL.H
C:\PROGRAM FILES (X86)\WINDOWS KITS\8.1\INCLUDE\UM\PROPIDL.H
C:\PROGRAM FILES (X86)\WINDOWS KITS\8.1\INCLUDE\UM\OLEAUTO.H
C:\PROGRAM FILES (X86)\WINDOWS KITS\8.1\INCLUDE\UM\COMMDLG.H
C:\PROGRAM FILES (X86)\WINDOWS KITS\8.1\INCLUDE\SHARED\STRALIGN.H
C:\PROGRAM FILES (X86)\WINDOWS KITS\8.1\INCLUDE\UM\WINSVC.H
C:\PROGRAM FILES (X86)\WINDOWS KITS\8.1\INCLUDE\UM\MCX.H
C:\PROGRAM FILES (X86)\WINDOWS KITS\8.1\INCLUDE\UM\IMM.H
C:\PROGRAM FILES (X86)\WINDOWS KITS\8.1\INCLUDE\UM\IME_CMODES.H
C:\PROGRAM FILES (X86)\MICROSOFT VISUAL STUDIO 14.0\VC\INCLUDE\IOSTREAM
C:\PROGRAM FILES (X86)\MICROSOFT VISUAL STUDIO 14.0\VC\INCLUDE\ISTREAM
C:\PROGRAM FILES (X86)\MICROSOFT VISUAL STUDIO 14.0\VC\INCLUDE\OSTREAM
C:\PROGRAM FILES (X86)\MICROSOFT VISUAL STUDIO 14.0\VC\INCLUDE\IOS
C:\PROGRAM FILES (X86)\MICROSOFT VISUAL STUDIO 14.0\VC\INCLUDE\XLOCNUM
C:\PROGRAM FILES (X86)\MICROSOFT VISUAL STUDIO 14.0\VC\INCLUDE\CLIMITS
C:\PROGRAM FILES (X86)\MICROSOFT VISUAL STUDIO 14.0\VC\INCLUDE\YVALS.H
C:\PROGRAM FILES (X86)\MICROSOFT VISUAL STUDIO 14.0\VC\INCLUDE\XKEYCHECK.H
C:\PROGRAM FILES (X86)\MICROSOFT VISUAL STUDIO 14.0\VC\INCLUDE\CRTDEFS.H
C:\PROGRAM FILES (X86)\MICROSOFT VISUAL STUDIO 14.0\VC\INCLUDE\USE_ANSI.H
C:\PROGRAM FILES (X86)\MICROSOFT VISUAL STUDIO 14.0\VC\INCLUDE\CMATH
C:\PROGRAM FILES (X86)\WINDOWS KITS\10\INCLUDE\10.0.10240.0\UCRT\MATH.H
C:\PROGRAM FILES (X86)\MICROSOFT VISUAL STUDIO 14.0\VC\INCLUDE\XTGMATH.H
C:\PROGRAM FILES (X86)\MICROSOFT VISUAL STUDIO 14.0\VC\INCLUDE\XTR1COMMON
C:\PROGRAM FILES (X86)\MICROSOFT VISUAL STUDIO 14.0\VC\INCLUDE\CSTDLIB
C:\PROGRAM FILES (X86)\MICROSOFT VISUAL STUDIO 14.0\VC\INCLUDE\CSTDIO
C:\PROGRAM FILES (X86)\MICROSOFT VISUAL STUDIO 14.0\VC\INCLUDE\STREAMBUF
C:\PROGRAM FILES (X86)\MICROSOFT VISUAL STUDIO 14.0\VC\INCLUDE\XIOSBASE
C:\PROGRAM FILES (X86)\MICROSOFT VISUAL STUDIO 14.0\VC\INCLUDE\XLOCALE
C:\PROGRAM FILES (X86)\MICROSOFT VISUAL STUDIO 14.0\VC\INCLUDE\CSTRING
C:\PROGRAM FILES (X86)\MICROSOFT VISUAL STUDIO 14.0\VC\INCLUDE\STDEXCEPT
C:\PROGRAM FILES (X86)\MICROSOFT VISUAL STUDIO 14.0\VC\INCLUDE\EXCEPTION
C:\PROGRAM FILES (X86)\MICROSOFT VISUAL STUDIO 14.0\VC\INCLUDE\TYPE_TRAITS
C:\PROGRAM FILES (X86)\MICROSOFT VISUAL STUDIO 14.0\VC\INCLUDE\XSTDDEF
C:\PROGRAM FILES (X86)\MICROSOFT VISUAL STUDIO 14.0\VC\INCLUDE\CSTDDEF
C:\PROGRAM FILES (X86)\MICROSOFT VISUAL STUDIO 14.0\VC\INCLUDE\INITIALIZER_LIST
C:\PROGRAM FILES (X86)\WINDOWS KITS\10\INCLUDE\10.0.10240.0\UCRT\MALLOC.H
C:\PROGRAM FILES (X86)\MICROSOFT VISUAL STUDIO 14.0\VC\INCLUDE\VCRUNTIME_EXCEPTION.H
C:\PROGRAM FILES (X86)\MICROSOFT VISUAL STUDIO 14.0\VC\INCLUDE\EH.H
C:\PROGRAM FILES (X86)\WINDOWS KITS\10\INCLUDE\10.0.10240.0\UCRT\CORECRT_TERMINATE.H
C:\PROGRAM FILES (X86)\MICROSOFT VISUAL STUDIO 14.0\VC\INCLUDE\XSTRING
C:\PROGRAM FILES (X86)\MICROSOFT VISUAL STUDIO 14.0\VC\INCLUDE\XMEMORY0
C:\PROGRAM FILES (X86)\MICROSOFT VISUAL STUDIO 14.0\VC\INCLUDE\CSTDINT
C:\PROGRAM FILES (X86)\MICROSOFT VISUAL STUDIO 14.0\VC\INCLUDE\STDINT.H
C:\PROGRAM FILES (X86)\MICROSOFT VISUAL STUDIO 14.0\VC\INCLUDE\LIMITS
C:\PROGRAM FILES (X86)\MICROSOFT VISUAL STUDIO 14.0\VC\INCLUDE\YMATH.H
C:\PROGRAM FILES (X86)\MICROSOFT VISUAL STUDIO 14.0\VC\INCLUDE\CFLOAT
C:\PROGRAM FILES (X86)\WINDOWS KITS\10\INCLUDE\10.0.10240.0\UCRT\FLOAT.H
C:\PROGRAM FILES (X86)\MICROSOFT VISUAL STUDIO 14.0\VC\INCLUDE\CWCHAR
C:\PROGRAM FILES (X86)\MICROSOFT VISUAL STUDIO 14.0\VC\INCLUDE\NEW
C:\PROGRAM FILES (X86)\MICROSOFT VISUAL STUDIO 14.0\VC\INCLUDE\VCRUNTIME_NEW.H
C:\PROGRAM FILES (X86)\MICROSOFT VISUAL STUDIO 14.0\VC\INCLUDE\XUTILITY
C:\PROGRAM FILES (X86)\MICROSOFT VISUAL STUDIO 14.0\VC\INCLUDE\UTILITY
C:\PROGRAM FILES (X86)\MICROSOFT VISUAL STUDIO 14.0\VC\INCLUDE\IOSFWD
C:\PROGRAM FILES (X86)\WINDOWS KITS\10\INCLUDE\10.0.10240.0\UCRT\CRTDBG.H
C:\PROGRAM FILES (X86)\MICROSOFT VISUAL STUDIO 14.0\VC\INCLUDE\VCRUNTIME_NEW_DEBUG.H
C:\PROGRAM FILES (X86)\MICROSOFT VISUAL STUDIO 14.0\VC\INCLUDE\XATOMIC0.H
C:\PROGRAM FILES (X86)\MICROSOFT VISUAL STUDIO 14.0\VC\INCLUDE\INTRIN.H
C:\PROGRAM FILES (X86)\MICROSOFT VISUAL STUDIO 14.0\VC\INCLUDE\SETJMP.H
C:\PROGRAM FILES (X86)\MICROSOFT VISUAL STUDIO 14.0\VC\INCLUDE\IMMINTRIN.H
C:\PROGRAM FILES (X86)\MICROSOFT VISUAL STUDIO 14.0\VC\INCLUDE\WMMINTRIN.H
C:\PROGRAM FILES (X86)\MICROSOFT VISUAL STUDIO 14.0\VC\INCLUDE\NMMINTRIN.H
C:\PROGRAM FILES (X86)\MICROSOFT VISUAL STUDIO 14.0\VC\INCLUDE\SMMINTRIN.H
C:\PROGRAM FILES (X86)\MICROSOFT VISUAL STUDIO 14.0\VC\INCLUDE\TMMINTRIN.H
C:\PROGRAM FILES (X86)\MICROSOFT VISUAL STUDIO 14.0\VC\INCLUDE\PMMINTRIN.H
C:\PROGRAM FILES (X86)\MICROSOFT VISUAL STUDIO 14.0\VC\INCLUDE\EMMINTRIN.H
C:\PROGRAM FILES (X86)\MICROSOFT VISUAL STUDIO 14.0\VC\INCLUDE\XMMINTRIN.H
C:\PROGRAM FILES (X86)\MICROSOFT VISUAL STUDIO 14.0\VC\INCLUDE\MMINTRIN.H
C:\PROGRAM FILES (X86)\MICROSOFT VISUAL STUDIO 14.0\VC\INCLUDE\AMMINTRIN.H
C:\PROGRAM FILES (X86)\MICROSOFT VISUAL STUDIO 14.0\VC\INCLUDE\MM3DNOW.H
C:\PROGRAM FILES (X86)\MICROSOFT VISUAL STUDIO 14.0\VC\INCLUDE\TYPEINFO
C:\PROGRAM FILES (X86)\MICROSOFT VISUAL STUDIO 14.0\VC\INCLUDE\VCRUNTIME_TYPEINFO.H
C:\PROGRAM FILES (X86)\MICROSOFT VISUAL STUDIO 14.0\VC\INCLUDE\XLOCINFO
C:\PROGRAM FILES (X86)\MICROSOFT VISUAL STUDIO 14.0\VC\INCLUDE\XLOCINFO.H
C:\PROGRAM FILES (X86)\WINDOWS KITS\10\INCLUDE\10.0.10240.0\UCRT\LOCALE.H
C:\PROGRAM FILES (X86)\MICROSOFT VISUAL STUDIO 14.0\VC\INCLUDE\XFACET
C:\PROGRAM FILES (X86)\MICROSOFT VISUAL STUDIO 14.0\VC\INCLUDE\SYSTEM_ERROR
C:\PROGRAM FILES (X86)\MICROSOFT VISUAL STUDIO 14.0\VC\INCLUDE\CERRNO
C:\PROGRAM FILES (X86)\WINDOWS KITS\10\INCLUDE\10.0.10240.0\UCRT\SHARE.H
C:\PROGRAM FILES (X86)\MICROSOFT VISUAL STUDIO 14.0\VC\BIN\MSPDBSRV.EXE
C:\PROGRAM FILES (X86)\MICROSOFT VISUAL STUDIO 14.0\VC\INCLUDE\STRING
C:\PROGRAM FILES (X86)\MICROSOFT VISUAL STUDIO 14.0\VC\INCLUDE\FSTREAM
C:\PROGRAM FILES (X86)\MICROSOFT VISUAL STUDIO 14.0\VC\INCLUDE\CODECVT
C:\PROGRAM FILES (X86)\MICROSOFT VISUAL STUDIO 14.0\VC\INCLUDE\LOCALE
C:\PROGRAM FILES (X86)\MICROSOFT VISUAL STUDIO 14.0\VC\INCLUDE\XLOCBUF
C:\PROGRAM FILES (X86)\MICROSOFT VISUAL STUDIO 14.0\VC\INCLUDE\XLOCMES
C:\PROGRAM FILES (X86)\MICROSOFT VISUAL STUDIO 14.0\VC\INCLUDE\XLOCMON
C:\PROGRAM FILES (X86)\MICROSOFT VISUAL STUDIO 14.0\VC\INCLUDE\XLOCTIME
C:\PROGRAM FILES (X86)\MICROSOFT VISUAL STUDIO 14.0\VC\INCLUDE\CTIME
C:\PROGRAM FILES (X86)\WINDOWS KITS\10\INCLUDE\10.0.10240.0\UCRT\TIME.H
C:\PROGRAM FILES (X86)\WINDOWS KITS\8.1\INCLUDE\UM\WINSOCK2.H
C:\PROGRAM FILES (X86)\WINDOWS KITS\8.1\INCLUDE\SHARED\WS2DEF.H
C:\PROGRAM FILES (X86)\WINDOWS KITS\8.1\INCLUDE\SHARED\QOS.H
C:\PROGRAM FILES (X86)\WINDOWS KITS\10\INCLUDE\10.0.10240.0\UCRT\CORECRT_WCTYPE.H
C:\PROGRAM FILES (X86)\WINDOWS KITS\10\INCLUDE\10.0.10240.0\UCRT\CORECRT_WSTDLIB.H
C:\PROGRAM FILES (X86)\WINDOWS KITS\10\INCLUDE\10.0.10240.0\UCRT\WCHAR.H
C:\PROGRAM FILES (X86)\WINDOWS KITS\10\INCLUDE\10.0.10240.0\UCRT\CORECRT_WCONIO.H
C:\PROGRAM FILES (X86)\WINDOWS KITS\10\INCLUDE\10.0.10240.0\UCRT\CORECRT_WDIRECT.H
C:\PROGRAM FILES (X86)\WINDOWS KITS\10\INCLUDE\10.0.10240.0\UCRT\CORECRT_WIO.H
C:\PROGRAM FILES (X86)\WINDOWS KITS\10\INCLUDE\10.0.10240.0\UCRT\CORECRT_SHARE.H
C:\PROGRAM FILES (X86)\WINDOWS KITS\10\INCLUDE\10.0.10240.0\UCRT\CORECRT_WPROCESS.H
C:\PROGRAM FILES (X86)\WINDOWS KITS\10\INCLUDE\10.0.10240.0\UCRT\CORECRT_WTIME.H
C:\PROGRAM FILES (X86)\WINDOWS KITS\10\INCLUDE\10.0.10240.0\UCRT\SYS\STAT.H
C:\PROGRAM FILES (X86)\WINDOWS KITS\10\INCLUDE\10.0.10240.0\UCRT\SYS\TYPES.H
C:\USERS\ED\DESKTOP\ARMADILLO-7.400.2\INCLUDE\ARMADILLO
C:\PROGRAM FILES (X86)\MICROSOFT VISUAL STUDIO 14.0\VC\INCLUDE\SSTREAM
C:\PROGRAM FILES (X86)\MICROSOFT VISUAL STUDIO 14.0\VC\INCLUDE\ALGORITHM
C:\PROGRAM FILES (X86)\MICROSOFT VISUAL STUDIO 14.0\VC\INCLUDE\XMEMORY
C:\PROGRAM FILES (X86)\MICROSOFT VISUAL STUDIO 14.0\VC\INCLUDE\COMPLEX
C:\PROGRAM FILES (X86)\MICROSOFT VISUAL STUDIO 14.0\VC\INCLUDE\CCOMPLEX
C:\PROGRAM FILES (X86)\MICROSOFT VISUAL STUDIO 14.0\VC\INCLUDE\XCOMPLEX
C:\PROGRAM FILES (X86)\MICROSOFT VISUAL STUDIO 14.0\VC\INCLUDE\VECTOR
C:\USERS\ED\DESKTOP\ARMADILLO-7.400.2\INCLUDE\ARMADILLO_BITS\CONFIG.HPP
C:\USERS\ED\DESKTOP\ARMADILLO-7.400.2\INCLUDE\ARMADILLO_BITS\COMPILER_SETUP.HPP
C:\USERS\ED\DESKTOP\ARMADILLO-7.400.2\INCLUDE\ARMADILLO_BITS\INCLUDE_ATLAS.HPP
C:\USERS\ED\DESKTOP\ARMADILLO-7.400.2\INCLUDE\ARMADILLO_BITS\INCLUDE_HDF5.HPP
C:\USERS\ED\DESKTOP\ARMADILLO-7.400.2\INCLUDE\ARMADILLO_BITS\INCLUDE_SUPERLU.HPP
C:\USERS\ED\DESKTOP\ARMADILLO-7.400.2\INCLUDE\ARMADILLO_BITS\ARMA_FORWARD.HPP
C:\USERS\ED\DESKTOP\ARMADILLO-7.400.2\INCLUDE\ARMADILLO_BITS\ARMA_STATIC_CHECK.HPP
C:\USERS\ED\DESKTOP\ARMADILLO-7.400.2\INCLUDE\ARMADILLO_BITS\TYPEDEF_ELEM.HPP
C:\USERS\ED\DESKTOP\ARMADILLO-7.400.2\INCLUDE\ARMADILLO_BITS\TYPEDEF_ELEM_CHECK.HPP
C:\USERS\ED\DESKTOP\ARMADILLO-7.400.2\INCLUDE\ARMADILLO_BITS\TYPEDEF_MAT.HPP
C:\USERS\ED\DESKTOP\ARMADILLO-7.400.2\INCLUDE\ARMADILLO_BITS\ARMA_STR.HPP
C:\USERS\ED\DESKTOP\ARMADILLO-7.400.2\INCLUDE\ARMADILLO_BITS\ARMA_VERSION.HPP
C:\USERS\ED\DESKTOP\ARMADILLO-7.400.2\INCLUDE\ARMADILLO_BITS\ARMA_CONFIG.HPP
C:\USERS\ED\DESKTOP\ARMADILLO-7.400.2\INCLUDE\ARMADILLO_BITS\TRAITS.HPP
C:\USERS\ED\DESKTOP\ARMADILLO-7.400.2\INCLUDE\ARMADILLO_BITS\PROMOTE_TYPE.HPP
C:\USERS\ED\DESKTOP\ARMADILLO-7.400.2\INCLUDE\ARMADILLO_BITS\UPGRADE_VAL.HPP
C:\USERS\ED\DESKTOP\ARMADILLO-7.400.2\INCLUDE\ARMADILLO_BITS\RESTRICTORS.HPP
C:\USERS\ED\DESKTOP\ARMADILLO-7.400.2\INCLUDE\ARMADILLO_BITS\ACCESS.HPP
C:\USERS\ED\DESKTOP\ARMADILLO-7.400.2\INCLUDE\ARMADILLO_BITS\SPAN.HPP
C:\USERS\ED\DESKTOP\ARMADILLO-7.400.2\INCLUDE\ARMADILLO_BITS\DISTR_PARAM.HPP
C:\USERS\ED\DESKTOP\ARMADILLO-7.400.2\INCLUDE\ARMADILLO_BITS\CONSTANTS.HPP
C:\USERS\ED\DESKTOP\ARMADILLO-7.400.2\INCLUDE\ARMADILLO_BITS\CONSTANTS_OLD.HPP
C:\USERS\ED\DESKTOP\ARMADILLO-7.400.2\INCLUDE\ARMADILLO_BITS\ARMA_RNG_CXX98.HPP
C:\USERS\ED\DESKTOP\ARMADILLO-7.400.2\INCLUDE\ARMADILLO_BITS\ARMA_RNG_CXX11.HPP
C:\USERS\ED\DESKTOP\ARMADILLO-7.400.2\INCLUDE\ARMADILLO_BITS\ARMA_RNG.HPP
C:\USERS\ED\DESKTOP\ARMADILLO-7.400.2\INCLUDE\ARMADILLO_BITS\BASE_BONES.HPP
C:\USERS\ED\DESKTOP\ARMADILLO-7.400.2\INCLUDE\ARMADILLO_BITS\BASECUBE_BONES.HPP
C:\USERS\ED\DESKTOP\ARMADILLO-7.400.2\INCLUDE\ARMADILLO_BITS\SPBASE_BONES.HPP
C:\USERS\ED\DESKTOP\ARMADILLO-7.400.2\INCLUDE\ARMADILLO_BITS\DEF_BLAS.HPP
C:\USERS\ED\DESKTOP\ARMADILLO-7.400.2\INCLUDE\ARMADILLO_BITS\DEF_LAPACK.HPP
C:\USERS\ED\DESKTOP\ARMADILLO-7.400.2\INCLUDE\ARMADILLO_BITS\DEF_ATLAS.HPP
C:\USERS\ED\DESKTOP\ARMADILLO-7.400.2\INCLUDE\ARMADILLO_BITS\DEF_ARPACK.HPP
C:\USERS\ED\DESKTOP\ARMADILLO-7.400.2\INCLUDE\ARMADILLO_BITS\DEF_SUPERLU.HPP
C:\USERS\ED\DESKTOP\ARMADILLO-7.400.2\INCLUDE\ARMADILLO_BITS\DEF_HDF5.HPP
C:\USERS\ED\DESKTOP\ARMADILLO-7.400.2\INCLUDE\ARMADILLO_BITS\WRAPPER_BLAS.HPP
C:\USERS\ED\DESKTOP\ARMADILLO-7.400.2\INCLUDE\ARMADILLO_BITS\WRAPPER_LAPACK.HPP
C:\USERS\ED\DESKTOP\ARMADILLO-7.400.2\INCLUDE\ARMADILLO_BITS\WRAPPER_ATLAS.HPP
C:\USERS\ED\DESKTOP\ARMADILLO-7.400.2\INCLUDE\ARMADILLO_BITS\WRAPPER_ARPACK.HPP
C:\USERS\ED\DESKTOP\ARMADILLO-7.400.2\INCLUDE\ARMADILLO_BITS\WRAPPER_SUPERLU.HPP
C:\USERS\ED\DESKTOP\ARMADILLO-7.400.2\INCLUDE\ARMADILLO_BITS\COND_REL_BONES.HPP
C:\USERS\ED\DESKTOP\ARMADILLO-7.400.2\INCLUDE\ARMADILLO_BITS\ARRAYOPS_BONES.HPP
C:\USERS\ED\DESKTOP\ARMADILLO-7.400.2\INCLUDE\ARMADILLO_BITS\PODARRAY_BONES.HPP
C:\USERS\ED\DESKTOP\ARMADILLO-7.400.2\INCLUDE\ARMADILLO_BITS\AUXLIB_BONES.HPP
C:\USERS\ED\DESKTOP\ARMADILLO-7.400.2\INCLUDE\ARMADILLO_BITS\SP_AUXLIB_BONES.HPP
C:\USERS\ED\DESKTOP\ARMADILLO-7.400.2\INCLUDE\ARMADILLO_BITS\INJECTOR_BONES.HPP
C:\USERS\ED\DESKTOP\ARMADILLO-7.400.2\INCLUDE\ARMADILLO_BITS\MAT_BONES.HPP
C:\USERS\ED\DESKTOP\ARMADILLO-7.400.2\INCLUDE\ARMADILLO_BITS\COL_BONES.HPP
C:\USERS\ED\DESKTOP\ARMADILLO-7.400.2\INCLUDE\ARMADILLO_BITS\ROW_BONES.HPP
C:\USERS\ED\DESKTOP\ARMADILLO-7.400.2\INCLUDE\ARMADILLO_BITS\CUBE_BONES.HPP
C:\USERS\ED\DESKTOP\ARMADILLO-7.400.2\INCLUDE\ARMADILLO_BITS\XVEC_HTRANS_BONES.HPP
C:\USERS\ED\DESKTOP\ARMADILLO-7.400.2\INCLUDE\ARMADILLO_BITS\XTRANS_MAT_BONES.HPP
C:\USERS\ED\DESKTOP\ARMADILLO-7.400.2\INCLUDE\ARMADILLO_BITS\SIZEMAT_BONES.HPP
C:\USERS\ED\DESKTOP\ARMADILLO-7.400.2\INCLUDE\ARMADILLO_BITS\SIZECUBE_BONES.HPP
C:\USERS\ED\DESKTOP\ARMADILLO-7.400.2\INCLUDE\ARMADILLO_BITS\SPVALPROXY_BONES.HPP
C:\USERS\ED\DESKTOP\ARMADILLO-7.400.2\INCLUDE\ARMADILLO_BITS\SPMAT_BONES.HPP
C:\USERS\ED\DESKTOP\ARMADILLO-7.400.2\INCLUDE\ARMADILLO_BITS\SPCOL_BONES.HPP
C:\USERS\ED\DESKTOP\ARMADILLO-7.400.2\INCLUDE\ARMADILLO_BITS\SPROW_BONES.HPP
C:\USERS\ED\DESKTOP\ARMADILLO-7.400.2\INCLUDE\ARMADILLO_BITS\SPSUBVIEW_BONES.HPP
C:\USERS\ED\DESKTOP\ARMADILLO-7.400.2\INCLUDE\ARMADILLO_BITS\SPDIAGVIEW_BONES.HPP
C:\USERS\ED\DESKTOP\ARMADILLO-7.400.2\INCLUDE\ARMADILLO_BITS\TYPEDEF_MAT_FIXED.HPP
C:\USERS\ED\DESKTOP\ARMADILLO-7.400.2\INCLUDE\ARMADILLO_BITS\FIELD_BONES.HPP
C:\USERS\ED\DESKTOP\ARMADILLO-7.400.2\INCLUDE\ARMADILLO_BITS\SUBVIEW_BONES.HPP
C:\USERS\ED\DESKTOP\ARMADILLO-7.400.2\INCLUDE\ARMADILLO_BITS\SUBVIEW_ELEM1_BONES.HPP
C:\USERS\ED\DESKTOP\ARMADILLO-7.400.2\INCLUDE\ARMADILLO_BITS\SUBVIEW_ELEM2_BONES.HPP
C:\USERS\ED\DESKTOP\ARMADILLO-7.400.2\INCLUDE\ARMADILLO_BITS\SUBVIEW_FIELD_BONES.HPP
C:\USERS\ED\DESKTOP\ARMADILLO-7.400.2\INCLUDE\ARMADILLO_BITS\SUBVIEW_CUBE_BONES.HPP
C:\USERS\ED\DESKTOP\ARMADILLO-7.400.2\INCLUDE\ARMADILLO_BITS\DIAGVIEW_BONES.HPP
C:\USERS\ED\DESKTOP\ARMADILLO-7.400.2\INCLUDE\ARMADILLO_BITS\SUBVIEW_EACH_BONES.HPP
C:\USERS\ED\DESKTOP\ARMADILLO-7.400.2\INCLUDE\ARMADILLO_BITS\SUBVIEW_CUBE_EACH_BONES.HPP
C:\USERS\ED\DESKTOP\ARMADILLO-7.400.2\INCLUDE\ARMADILLO_BITS\DISKIO_BONES.HPP
C:\USERS\ED\DESKTOP\ARMADILLO-7.400.2\INCLUDE\ARMADILLO_BITS\WALL_CLOCK_BONES.HPP
C:\USERS\ED\DESKTOP\ARMADILLO-7.400.2\INCLUDE\ARMADILLO_BITS\RUNNING_STAT_BONES.HPP
C:\USERS\ED\DESKTOP\ARMADILLO-7.400.2\INCLUDE\ARMADILLO_BITS\RUNNING_STAT_VEC_BONES.HPP
C:\USERS\ED\DESKTOP\ARMADILLO-7.400.2\INCLUDE\ARMADILLO_BITS\OP_BONES.HPP
C:\USERS\ED\DESKTOP\ARMADILLO-7.400.2\INCLUDE\ARMADILLO_BITS\OPCUBE_BONES.HPP
C:\USERS\ED\DESKTOP\ARMADILLO-7.400.2\INCLUDE\ARMADILLO_BITS\SPOP_BONES.HPP
C:\USERS\ED\DESKTOP\ARMADILLO-7.400.2\INCLUDE\ARMADILLO_BITS\EOP_BONES.HPP
C:\USERS\ED\DESKTOP\ARMADILLO-7.400.2\INCLUDE\ARMADILLO_BITS\EOPCUBE_BONES.HPP
C:\USERS\ED\DESKTOP\ARMADILLO-7.400.2\INCLUDE\ARMADILLO_BITS\MTOP_BONES.HPP
C:\USERS\ED\DESKTOP\ARMADILLO-7.400.2\INCLUDE\ARMADILLO_BITS\MTOPCUBE_BONES.HPP
C:\USERS\ED\DESKTOP\ARMADILLO-7.400.2\INCLUDE\ARMADILLO_BITS\MTSPOP_BONES.HPP
C:\USERS\ED\DESKTOP\ARMADILLO-7.400.2\INCLUDE\ARMADILLO_BITS\GLUE_BONES.HPP
C:\USERS\ED\DESKTOP\ARMADILLO-7.400.2\INCLUDE\ARMADILLO_BITS\EGLUE_BONES.HPP
C:\USERS\ED\DESKTOP\ARMADILLO-7.400.2\INCLUDE\ARMADILLO_BITS\MTGLUE_BONES.HPP
C:\USERS\ED\DESKTOP\ARMADILLO-7.400.2\INCLUDE\ARMADILLO_BITS\SPGLUE_BONES.HPP
C:\USERS\ED\DESKTOP\ARMADILLO-7.400.2\INCLUDE\ARMADILLO_BITS\GLUECUBE_BONES.HPP
C:\USERS\ED\DESKTOP\ARMADILLO-7.400.2\INCLUDE\ARMADILLO_BITS\EGLUECUBE_BONES.HPP
C:\USERS\ED\DESKTOP\ARMADILLO-7.400.2\INCLUDE\ARMADILLO_BITS\MTGLUECUBE_BONES.HPP
C:\USERS\ED\DESKTOP\ARMADILLO-7.400.2\INCLUDE\ARMADILLO_BITS\EOP_CORE_BONES.HPP
C:\USERS\ED\DESKTOP\ARMADILLO-7.400.2\INCLUDE\ARMADILLO_BITS\EGLUE_CORE_BONES.HPP
C:\USERS\ED\DESKTOP\ARMADILLO-7.400.2\INCLUDE\ARMADILLO_BITS\GENSPECIALISER.HPP
C:\USERS\ED\DESKTOP\ARMADILLO-7.400.2\INCLUDE\ARMADILLO_BITS\GEN_BONES.HPP
C:\USERS\ED\DESKTOP\ARMADILLO-7.400.2\INCLUDE\ARMADILLO_BITS\GENCUBE_BONES.HPP
C:\USERS\ED\DESKTOP\ARMADILLO-7.400.2\INCLUDE\ARMADILLO_BITS\OP_DIAGMAT_BONES.HPP
C:\USERS\ED\DESKTOP\ARMADILLO-7.400.2\INCLUDE\ARMADILLO_BITS\OP_DIAGVEC_BONES.HPP
C:\USERS\ED\DESKTOP\ARMADILLO-7.400.2\INCLUDE\ARMADILLO_BITS\OP_DOT_BONES.HPP
C:\USERS\ED\DESKTOP\ARMADILLO-7.400.2\INCLUDE\ARMADILLO_BITS\OP_INV_BONES.HPP
C:\USERS\ED\DESKTOP\ARMADILLO-7.400.2\INCLUDE\ARMADILLO_BITS\OP_HTRANS_BONES.HPP
C:\USERS\ED\DESKTOP\ARMADILLO-7.400.2\INCLUDE\ARMADILLO_BITS\OP_MAX_BONES.HPP
C:\USERS\ED\DESKTOP\ARMADILLO-7.400.2\INCLUDE\ARMADILLO_BITS\OP_MIN_BONES.HPP
C:\USERS\ED\DESKTOP\ARMADILLO-7.400.2\INCLUDE\ARMADILLO_BITS\OP_INDEX_MAX_BONES.HPP
C:\USERS\ED\DESKTOP\ARMADILLO-7.400.2\INCLUDE\ARMADILLO_BITS\OP_INDEX_MIN_BONES.HPP
C:\USERS\ED\DESKTOP\ARMADILLO-7.400.2\INCLUDE\ARMADILLO_BITS\OP_MEAN_BONES.HPP
C:\USERS\ED\DESKTOP\ARMADILLO-7.400.2\INCLUDE\ARMADILLO_BITS\OP_MEDIAN_BONES.HPP
C:\USERS\ED\DESKTOP\ARMADILLO-7.400.2\INCLUDE\ARMADILLO_BITS\OP_SORT_BONES.HPP
C:\USERS\ED\DESKTOP\ARMADILLO-7.400.2\INCLUDE\ARMADILLO_BITS\OP_SORT_INDEX_BONES.HPP
C:\USERS\ED\DESKTOP\ARMADILLO-7.400.2\INCLUDE\ARMADILLO_BITS\OP_SUM_BONES.HPP
C:\USERS\ED\DESKTOP\ARMADILLO-7.400.2\INCLUDE\ARMADILLO_BITS\OP_STDDEV_BONES.HPP
C:\USERS\ED\DESKTOP\ARMADILLO-7.400.2\INCLUDE\ARMADILLO_BITS\OP_STRANS_BONES.HPP
C:\USERS\ED\DESKTOP\ARMADILLO-7.400.2\INCLUDE\ARMADILLO_BITS\OP_VAR_BONES.HPP
C:\USERS\ED\DESKTOP\ARMADILLO-7.400.2\INCLUDE\ARMADILLO_BITS\OP_REPMAT_BONES.HPP
C:\USERS\ED\DESKTOP\ARMADILLO-7.400.2\INCLUDE\ARMADILLO_BITS\OP_RESHAPE_BONES.HPP
C:\USERS\ED\DESKTOP\ARMADILLO-7.400.2\INCLUDE\ARMADILLO_BITS\OP_VECTORISE_BONES.HPP
C:\USERS\ED\DESKTOP\ARMADILLO-7.400.2\INCLUDE\ARMADILLO_BITS\OP_RESIZE_BONES.HPP
C:\USERS\ED\DESKTOP\ARMADILLO-7.400.2\INCLUDE\ARMADILLO_BITS\OP_COV_BONES.HPP
C:\USERS\ED\DESKTOP\ARMADILLO-7.400.2\INCLUDE\ARMADILLO_BITS\OP_COR_BONES.HPP
C:\USERS\ED\DESKTOP\ARMADILLO-7.400.2\INCLUDE\ARMADILLO_BITS\OP_SHIFT_BONES.HPP
C:\USERS\ED\DESKTOP\ARMADILLO-7.400.2\INCLUDE\ARMADILLO_BITS\OP_SHUFFLE_BONES.HPP
C:\USERS\ED\DESKTOP\ARMADILLO-7.400.2\INCLUDE\ARMADILLO_BITS\OP_PROD_BONES.HPP
C:\USERS\ED\DESKTOP\ARMADILLO-7.400.2\INCLUDE\ARMADILLO_BITS\OP_PINV_BONES.HPP
C:\USERS\ED\DESKTOP\ARMADILLO-7.400.2\INCLUDE\ARMADILLO_BITS\OP_DOTEXT_BONES.HPP
C:\USERS\ED\DESKTOP\ARMADILLO-7.400.2\INCLUDE\ARMADILLO_BITS\OP_FLIP_BONES.HPP
C:\USERS\ED\DESKTOP\ARMADILLO-7.400.2\INCLUDE\ARMADILLO_BITS\OP_PRINCOMP_BONES.HPP
C:\USERS\ED\DESKTOP\ARMADILLO-7.400.2\INCLUDE\ARMADILLO_BITS\OP_MISC_BONES.HPP
C:\USERS\ED\DESKTOP\ARMADILLO-7.400.2\INCLUDE\ARMADILLO_BITS\OP_ORTH_NULL_BONES.HPP
C:\USERS\ED\DESKTOP\ARMADILLO-7.400.2\INCLUDE\ARMADILLO_BITS\OP_RELATIONAL_BONES.HPP
C:\USERS\ED\DESKTOP\ARMADILLO-7.400.2\INCLUDE\ARMADILLO_BITS\OP_FIND_BONES.HPP
C:\USERS\ED\DESKTOP\ARMADILLO-7.400.2\INCLUDE\ARMADILLO_BITS\OP_FIND_UNIQUE_BONES.HPP
C:\USERS\ED\DESKTOP\ARMADILLO-7.400.2\INCLUDE\ARMADILLO_BITS\OP_CHOL_BONES.HPP
C:\USERS\ED\DESKTOP\ARMADILLO-7.400.2\INCLUDE\ARMADILLO_BITS\OP_CX_SCALAR_BONES.HPP
C:\USERS\ED\DESKTOP\ARMADILLO-7.400.2\INCLUDE\ARMADILLO_BITS\OP_TRIMAT_BONES.HPP
C:\USERS\ED\DESKTOP\ARMADILLO-7.400.2\INCLUDE\ARMADILLO_BITS\OP_CUMSUM_BONES.HPP
C:\USERS\ED\DESKTOP\ARMADILLO-7.400.2\INCLUDE\ARMADILLO_BITS\OP_CUMPROD_BONES.HPP
C:\USERS\ED\DESKTOP\ARMADILLO-7.400.2\INCLUDE\ARMADILLO_BITS\OP_SYMMAT_BONES.HPP
C:\USERS\ED\DESKTOP\ARMADILLO-7.400.2\INCLUDE\ARMADILLO_BITS\OP_HIST_BONES.HPP
C:\USERS\ED\DESKTOP\ARMADILLO-7.400.2\INCLUDE\ARMADILLO_BITS\OP_UNIQUE_BONES.HPP
C:\USERS\ED\DESKTOP\ARMADILLO-7.400.2\INCLUDE\ARMADILLO_BITS\OP_TOEPLITZ_BONES.HPP
C:\USERS\ED\DESKTOP\ARMADILLO-7.400.2\INCLUDE\ARMADILLO_BITS\OP_FFT_BONES.HPP
C:\USERS\ED\DESKTOP\ARMADILLO-7.400.2\INCLUDE\ARMADILLO_BITS\OP_ANY_BONES.HPP
C:\USERS\ED\DESKTOP\ARMADILLO-7.400.2\INCLUDE\ARMADILLO_BITS\OP_ALL_BONES.HPP
C:\USERS\ED\DESKTOP\ARMADILLO-7.400.2\INCLUDE\ARMADILLO_BITS\OP_NORMALISE_BONES.HPP
C:\USERS\ED\DESKTOP\ARMADILLO-7.400.2\INCLUDE\ARMADILLO_BITS\OP_CLAMP_BONES.HPP
C:\USERS\ED\DESKTOP\ARMADILLO-7.400.2\INCLUDE\ARMADILLO_BITS\OP_EXPMAT_BONES.HPP
C:\USERS\ED\DESKTOP\ARMADILLO-7.400.2\INCLUDE\ARMADILLO_BITS\OP_NONZEROS_BONES.HPP
C:\USERS\ED\DESKTOP\ARMADILLO-7.400.2\INCLUDE\ARMADILLO_BITS\OP_DIFF_BONES.HPP
C:\USERS\ED\DESKTOP\ARMADILLO-7.400.2\INCLUDE\ARMADILLO_BITS\OP_NORM_BONES.HPP
C:\USERS\ED\DESKTOP\ARMADILLO-7.400.2\INCLUDE\ARMADILLO_BITS\OP_SQRTMAT_BONES.HPP
C:\USERS\ED\DESKTOP\ARMADILLO-7.400.2\INCLUDE\ARMADILLO_BITS\OP_LOGMAT_BONES.HPP
C:\USERS\ED\DESKTOP\ARMADILLO-7.400.2\INCLUDE\ARMADILLO_BITS\GLUE_TIMES_BONES.HPP
C:\USERS\ED\DESKTOP\ARMADILLO-7.400.2\INCLUDE\ARMADILLO_BITS\GLUE_MIXED_BONES.HPP
C:\USERS\ED\DESKTOP\ARMADILLO-7.400.2\INCLUDE\ARMADILLO_BITS\GLUE_COV_BONES.HPP
C:\USERS\ED\DESKTOP\ARMADILLO-7.400.2\INCLUDE\ARMADILLO_BITS\GLUE_COR_BONES.HPP
C:\USERS\ED\DESKTOP\ARMADILLO-7.400.2\INCLUDE\ARMADILLO_BITS\GLUE_KRON_BONES.HPP
C:\USERS\ED\DESKTOP\ARMADILLO-7.400.2\INCLUDE\ARMADILLO_BITS\GLUE_CROSS_BONES.HPP
C:\USERS\ED\DESKTOP\ARMADILLO-7.400.2\INCLUDE\ARMADILLO_BITS\GLUE_JOIN_BONES.HPP
C:\USERS\ED\DESKTOP\ARMADILLO-7.400.2\INCLUDE\ARMADILLO_BITS\GLUE_RELATIONAL_BONES.HPP
C:\USERS\ED\DESKTOP\ARMADILLO-7.400.2\INCLUDE\ARMADILLO_BITS\GLUE_SOLVE_BONES.HPP
C:\USERS\ED\DESKTOP\ARMADILLO-7.400.2\INCLUDE\ARMADILLO_BITS\GLUE_CONV_BONES.HPP
C:\USERS\ED\DESKTOP\ARMADILLO-7.400.2\INCLUDE\ARMADILLO_BITS\GLUE_TOEPLITZ_BONES.HPP
C:\USERS\ED\DESKTOP\ARMADILLO-7.400.2\INCLUDE\ARMADILLO_BITS\GLUE_HIST_BONES.HPP
C:\USERS\ED\DESKTOP\ARMADILLO-7.400.2\INCLUDE\ARMADILLO_BITS\GLUE_HISTC_BONES.HPP
C:\USERS\ED\DESKTOP\ARMADILLO-7.400.2\INCLUDE\ARMADILLO_BITS\GLUE_MAX_BONES.HPP
C:\USERS\ED\DESKTOP\ARMADILLO-7.400.2\INCLUDE\ARMADILLO_BITS\GLUE_MIN_BONES.HPP
C:\USERS\ED\DESKTOP\ARMADILLO-7.400.2\INCLUDE\ARMADILLO_BITS\GLUE_TRAPZ_BONES.HPP
C:\USERS\ED\DESKTOP\ARMADILLO-7.400.2\INCLUDE\ARMADILLO_BITS\GMM_MISC_BONES.HPP
C:\USERS\ED\DESKTOP\ARMADILLO-7.400.2\INCLUDE\ARMADILLO_BITS\GMM_DIAG_BONES.HPP
C:\USERS\ED\DESKTOP\ARMADILLO-7.400.2\INCLUDE\ARMADILLO_BITS\SPOP_MAX_BONES.HPP
C:\USERS\ED\DESKTOP\ARMADILLO-7.400.2\INCLUDE\ARMADILLO_BITS\SPOP_MIN_BONES.HPP
C:\USERS\ED\DESKTOP\ARMADILLO-7.400.2\INCLUDE\ARMADILLO_BITS\SPOP_SUM_BONES.HPP
C:\USERS\ED\DESKTOP\ARMADILLO-7.400.2\INCLUDE\ARMADILLO_BITS\SPOP_STRANS_BONES.HPP
C:\USERS\ED\DESKTOP\ARMADILLO-7.400.2\INCLUDE\ARMADILLO_BITS\SPOP_HTRANS_BONES.HPP
C:\USERS\ED\DESKTOP\ARMADILLO-7.400.2\INCLUDE\ARMADILLO_BITS\SPOP_MISC_BONES.HPP
C:\USERS\ED\DESKTOP\ARMADILLO-7.400.2\INCLUDE\ARMADILLO_BITS\SPOP_DIAGMAT_BONES.HPP
C:\USERS\ED\DESKTOP\ARMADILLO-7.400.2\INCLUDE\ARMADILLO_BITS\SPOP_MEAN_BONES.HPP
C:\USERS\ED\DESKTOP\ARMADILLO-7.400.2\INCLUDE\ARMADILLO_BITS\SPOP_VAR_BONES.HPP
C:\USERS\ED\DESKTOP\ARMADILLO-7.400.2\INCLUDE\ARMADILLO_BITS\SPGLUE_PLUS_BONES.HPP
C:\USERS\ED\DESKTOP\ARMADILLO-7.400.2\INCLUDE\ARMADILLO_BITS\SPGLUE_MINUS_BONES.HPP
C:\USERS\ED\DESKTOP\ARMADILLO-7.400.2\INCLUDE\ARMADILLO_BITS\SPGLUE_TIMES_BONES.HPP
C:\USERS\ED\DESKTOP\ARMADILLO-7.400.2\INCLUDE\ARMADILLO_BITS\SPGLUE_JOIN_BONES.HPP
C:\USERS\ED\DESKTOP\ARMADILLO-7.400.2\INCLUDE\ARMADILLO_BITS\NEWARP_EIGSSELECT.HPP
C:\USERS\ED\DESKTOP\ARMADILLO-7.400.2\INCLUDE\ARMADILLO_BITS\NEWARP_DENSEGENMATPROD_BONES.HPP
C:\USERS\ED\DESKTOP\ARMADILLO-7.400.2\INCLUDE\ARMADILLO_BITS\NEWARP_SPARSEGENMATPROD_BONES.HPP
C:\USERS\ED\DESKTOP\ARMADILLO-7.400.2\INCLUDE\ARMADILLO_BITS\NEWARP_DOUBLESHIFTQR_BONES.HPP
C:\USERS\ED\DESKTOP\ARMADILLO-7.400.2\INCLUDE\ARMADILLO_BITS\NEWARP_GENEIGSSOLVER_BONES.HPP
C:\USERS\ED\DESKTOP\ARMADILLO-7.400.2\INCLUDE\ARMADILLO_BITS\NEWARP_SYMEIGSSOLVER_BONES.HPP
C:\USERS\ED\DESKTOP\ARMADILLO-7.400.2\INCLUDE\ARMADILLO_BITS\NEWARP_TRIDIAGEIGEN_BONES.HPP
C:\USERS\ED\DESKTOP\ARMADILLO-7.400.2\INCLUDE\ARMADILLO_BITS\NEWARP_UPPERHESSENBERGEIGEN_BONES.HPP
C:\USERS\ED\DESKTOP\ARMADILLO-7.400.2\INCLUDE\ARMADILLO_BITS\NEWARP_UPPERHESSENBERGQR_BONES.HPP
C:\USERS\ED\DESKTOP\ARMADILLO-7.400.2\INCLUDE\ARMADILLO_BITS\DEBUG.HPP
C:\USERS\ED\DESKTOP\ARMADILLO-7.400.2\INCLUDE\ARMADILLO_BITS\MEMORY.HPP
C:\USERS\ED\DESKTOP\ARMADILLO-7.400.2\INCLUDE\ARMADILLO_BITS\ARMA_CMATH.HPP
C:\USERS\ED\DESKTOP\ARMADILLO-7.400.2\INCLUDE\ARMADILLO_BITS\UNWRAP.HPP
C:\USERS\ED\DESKTOP\ARMADILLO-7.400.2\INCLUDE\ARMADILLO_BITS\UNWRAP_CUBE.HPP
C:\USERS\ED\DESKTOP\ARMADILLO-7.400.2\INCLUDE\ARMADILLO_BITS\UNWRAP_SPMAT.HPP
C:\USERS\ED\DESKTOP\ARMADILLO-7.400.2\INCLUDE\ARMADILLO_BITS\PROXY.HPP
C:\USERS\ED\DESKTOP\ARMADILLO-7.400.2\INCLUDE\ARMADILLO_BITS\PROXYCUBE.HPP
C:\USERS\ED\DESKTOP\ARMADILLO-7.400.2\INCLUDE\ARMADILLO_BITS\SPPROXY.HPP
C:\USERS\ED\DESKTOP\ARMADILLO-7.400.2\INCLUDE\ARMADILLO_BITS\DIAGMAT_PROXY.HPP
C:\USERS\ED\DESKTOP\ARMADILLO-7.400.2\INCLUDE\ARMADILLO_BITS\STRIP.HPP
C:\USERS\ED\DESKTOP\ARMADILLO-7.400.2\INCLUDE\ARMADILLO_BITS\OP_MEAT.HPP
C:\USERS\ED\DESKTOP\ARMADILLO-7.400.2\INCLUDE\ARMADILLO_BITS\OPCUBE_MEAT.HPP
C:\USERS\ED\DESKTOP\ARMADILLO-7.400.2\INCLUDE\ARMADILLO_BITS\SPOP_MEAT.HPP
C:\USERS\ED\DESKTOP\ARMADILLO-7.400.2\INCLUDE\ARMADILLO_BITS\MTOP_MEAT.HPP
C:\USERS\ED\DESKTOP\ARMADILLO-7.400.2\INCLUDE\ARMADILLO_BITS\MTOPCUBE_MEAT.HPP
C:\USERS\ED\DESKTOP\ARMADILLO-7.400.2\INCLUDE\ARMADILLO_BITS\MTSPOP_MEAT.HPP
C:\USERS\ED\DESKTOP\ARMADILLO-7.400.2\INCLUDE\ARMADILLO_BITS\GLUE_MEAT.HPP
C:\USERS\ED\DESKTOP\ARMADILLO-7.400.2\INCLUDE\ARMADILLO_BITS\GLUECUBE_MEAT.HPP
C:\USERS\ED\DESKTOP\ARMADILLO-7.400.2\INCLUDE\ARMADILLO_BITS\SPGLUE_MEAT.HPP
C:\USERS\ED\DESKTOP\ARMADILLO-7.400.2\INCLUDE\ARMADILLO_BITS\EOP_AUX.HPP
C:\USERS\ED\DESKTOP\ARMADILLO-7.400.2\INCLUDE\ARMADILLO_BITS\EOP_MEAT.HPP
C:\USERS\ED\DESKTOP\ARMADILLO-7.400.2\INCLUDE\ARMADILLO_BITS\EOPCUBE_MEAT.HPP
C:\USERS\ED\DESKTOP\ARMADILLO-7.400.2\INCLUDE\ARMADILLO_BITS\EGLUE_MEAT.HPP
C:\USERS\ED\DESKTOP\ARMADILLO-7.400.2\INCLUDE\ARMADILLO_BITS\EGLUECUBE_MEAT.HPP
C:\USERS\ED\DESKTOP\ARMADILLO-7.400.2\INCLUDE\ARMADILLO_BITS\MTGLUE_MEAT.HPP
C:\USERS\ED\DESKTOP\ARMADILLO-7.400.2\INCLUDE\ARMADILLO_BITS\MTGLUECUBE_MEAT.HPP
C:\USERS\ED\DESKTOP\ARMADILLO-7.400.2\INCLUDE\ARMADILLO_BITS\BASE_MEAT.HPP
C:\USERS\ED\DESKTOP\ARMADILLO-7.400.2\INCLUDE\ARMADILLO_BITS\BASECUBE_MEAT.HPP
C:\USERS\ED\DESKTOP\ARMADILLO-7.400.2\INCLUDE\ARMADILLO_BITS\SPBASE_MEAT.HPP
C:\USERS\ED\DESKTOP\ARMADILLO-7.400.2\INCLUDE\ARMADILLO_BITS\GEN_MEAT.HPP
C:\USERS\ED\DESKTOP\ARMADILLO-7.400.2\INCLUDE\ARMADILLO_BITS\GENCUBE_MEAT.HPP
C:\USERS\ED\DESKTOP\ARMADILLO-7.400.2\INCLUDE\ARMADILLO_BITS\ARMA_OSTREAM_BONES.HPP
C:\USERS\ED\DESKTOP\ARMADILLO-7.400.2\INCLUDE\ARMADILLO_BITS\ARMA_OSTREAM_MEAT.HPP
C:\USERS\ED\DESKTOP\ARMADILLO-7.400.2\INCLUDE\ARMADILLO_BITS\FN_N_UNIQUE.HPP
C:\USERS\ED\DESKTOP\ARMADILLO-7.400.2\INCLUDE\ARMADILLO_BITS\OPERATOR_PLUS.HPP
C:\USERS\ED\DESKTOP\ARMADILLO-7.400.2\INCLUDE\ARMADILLO_BITS\OPERATOR_MINUS.HPP
C:\USERS\ED\DESKTOP\ARMADILLO-7.400.2\INCLUDE\ARMADILLO_BITS\OPERATOR_TIMES.HPP
C:\USERS\ED\DESKTOP\ARMADILLO-7.400.2\INCLUDE\ARMADILLO_BITS\OPERATOR_SCHUR.HPP
C:\USERS\ED\DESKTOP\ARMADILLO-7.400.2\INCLUDE\ARMADILLO_BITS\OPERATOR_DIV.HPP
C:\USERS\ED\DESKTOP\ARMADILLO-7.400.2\INCLUDE\ARMADILLO_BITS\OPERATOR_RELATIONAL.HPP
C:\USERS\ED\DESKTOP\ARMADILLO-7.400.2\INCLUDE\ARMADILLO_BITS\OPERATOR_CUBE_PLUS.HPP
C:\USERS\ED\DESKTOP\ARMADILLO-7.400.2\INCLUDE\ARMADILLO_BITS\OPERATOR_CUBE_MINUS.HPP
C:\USERS\ED\DESKTOP\ARMADILLO-7.400.2\INCLUDE\ARMADILLO_BITS\OPERATOR_CUBE_TIMES.HPP
C:\USERS\ED\DESKTOP\ARMADILLO-7.400.2\INCLUDE\ARMADILLO_BITS\OPERATOR_CUBE_SCHUR.HPP
C:\USERS\ED\DESKTOP\ARMADILLO-7.400.2\INCLUDE\ARMADILLO_BITS\OPERATOR_CUBE_DIV.HPP
C:\USERS\ED\DESKTOP\ARMADILLO-7.400.2\INCLUDE\ARMADILLO_BITS\OPERATOR_CUBE_RELATIONAL.HPP
C:\USERS\ED\DESKTOP\ARMADILLO-7.400.2\INCLUDE\ARMADILLO_BITS\OPERATOR_OSTREAM.HPP
C:\USERS\ED\DESKTOP\ARMADILLO-7.400.2\INCLUDE\ARMADILLO_BITS\FN_CONV_TO.HPP
C:\USERS\ED\DESKTOP\ARMADILLO-7.400.2\INCLUDE\ARMADILLO_BITS\FN_MAX.HPP
C:\USERS\ED\DESKTOP\ARMADILLO-7.400.2\INCLUDE\ARMADILLO_BITS\FN_MIN.HPP
C:\USERS\ED\DESKTOP\ARMADILLO-7.400.2\INCLUDE\ARMADILLO_BITS\FN_INDEX_MAX.HPP
C:\USERS\ED\DESKTOP\ARMADILLO-7.400.2\INCLUDE\ARMADILLO_BITS\FN_INDEX_MIN.HPP
C:\USERS\ED\DESKTOP\ARMADILLO-7.400.2\INCLUDE\ARMADILLO_BITS\FN_ACCU.HPP
C:\USERS\ED\DESKTOP\ARMADILLO-7.400.2\INCLUDE\ARMADILLO_BITS\FN_SUM.HPP
C:\USERS\ED\DESKTOP\ARMADILLO-7.400.2\INCLUDE\ARMADILLO_BITS\FN_DIAGMAT.HPP
C:\USERS\ED\DESKTOP\ARMADILLO-7.400.2\INCLUDE\ARMADILLO_BITS\FN_DIAGVEC.HPP
C:\USERS\ED\DESKTOP\ARMADILLO-7.400.2\INCLUDE\ARMADILLO_BITS\FN_INV.HPP
C:\USERS\ED\DESKTOP\ARMADILLO-7.400.2\INCLUDE\ARMADILLO_BITS\FN_TRACE.HPP
C:\USERS\ED\DESKTOP\ARMADILLO-7.400.2\INCLUDE\ARMADILLO_BITS\FN_TRANS.HPP
C:\USERS\ED\DESKTOP\ARMADILLO-7.400.2\INCLUDE\ARMADILLO_BITS\FN_DET.HPP
C:\USERS\ED\DESKTOP\ARMADILLO-7.400.2\INCLUDE\ARMADILLO_BITS\FN_LOG_DET.HPP
C:\USERS\ED\DESKTOP\ARMADILLO-7.400.2\INCLUDE\ARMADILLO_BITS\FN_EIG_GEN.HPP
C:\USERS\ED\DESKTOP\ARMADILLO-7.400.2\INCLUDE\ARMADILLO_BITS\FN_EIG_SYM.HPP
C:\USERS\ED\DESKTOP\ARMADILLO-7.400.2\INCLUDE\ARMADILLO_BITS\FN_EIG_PAIR.HPP
C:\USERS\ED\DESKTOP\ARMADILLO-7.400.2\INCLUDE\ARMADILLO_BITS\FN_LU.HPP
C:\USERS\ED\DESKTOP\ARMADILLO-7.400.2\INCLUDE\ARMADILLO_BITS\FN_ZEROS.HPP
C:\USERS\ED\DESKTOP\ARMADILLO-7.400.2\INCLUDE\ARMADILLO_BITS\FN_ONES.HPP
C:\USERS\ED\DESKTOP\ARMADILLO-7.400.2\INCLUDE\ARMADILLO_BITS\FN_EYE.HPP
C:\USERS\ED\DESKTOP\ARMADILLO-7.400.2\INCLUDE\ARMADILLO_BITS\FN_MISC.HPP
C:\USERS\ED\DESKTOP\ARMADILLO-7.400.2\INCLUDE\ARMADILLO_BITS\FN_ORTH_NULL.HPP
C:\USERS\ED\DESKTOP\ARMADILLO-7.400.2\INCLUDE\ARMADILLO_BITS\FN_REGSPACE.HPP
C:\USERS\ED\DESKTOP\ARMADILLO-7.400.2\INCLUDE\ARMADILLO_BITS\FN_FIND.HPP
C:\USERS\ED\DESKTOP\ARMADILLO-7.400.2\INCLUDE\ARMADILLO_BITS\FN_FIND_UNIQUE.HPP
C:\USERS\ED\DESKTOP\ARMADILLO-7.400.2\INCLUDE\ARMADILLO_BITS\FN_ELEM.HPP
C:\USERS\ED\DESKTOP\ARMADILLO-7.400.2\INCLUDE\ARMADILLO_BITS\FN_APPROX_EQUAL.HPP
C:\USERS\ED\DESKTOP\ARMADILLO-7.400.2\INCLUDE\ARMADILLO_BITS\FN_NORM.HPP
C:\USERS\ED\DESKTOP\ARMADILLO-7.400.2\INCLUDE\ARMADILLO_BITS\FN_DOT.HPP
C:\USERS\ED\DESKTOP\ARMADILLO-7.400.2\INCLUDE\ARMADILLO_BITS\FN_RANDU.HPP
C:\USERS\ED\DESKTOP\ARMADILLO-7.400.2\INCLUDE\ARMADILLO_BITS\FN_RANDN.HPP
C:\USERS\ED\DESKTOP\ARMADILLO-7.400.2\INCLUDE\ARMADILLO_BITS\FN_TRIG.HPP
C:\USERS\ED\DESKTOP\ARMADILLO-7.400.2\INCLUDE\ARMADILLO_BITS\FN_MEAN.HPP
C:\USERS\ED\DESKTOP\ARMADILLO-7.400.2\INCLUDE\ARMADILLO_BITS\FN_MEDIAN.HPP
C:\USERS\ED\DESKTOP\ARMADILLO-7.400.2\INCLUDE\ARMADILLO_BITS\FN_STDDEV.HPP
C:\USERS\ED\DESKTOP\ARMADILLO-7.400.2\INCLUDE\ARMADILLO_BITS\FN_VAR.HPP
C:\USERS\ED\DESKTOP\ARMADILLO-7.400.2\INCLUDE\ARMADILLO_BITS\FN_SORT.HPP
C:\USERS\ED\DESKTOP\ARMADILLO-7.400.2\INCLUDE\ARMADILLO_BITS\FN_SORT_INDEX.HPP
C:\USERS\ED\DESKTOP\ARMADILLO-7.400.2\INCLUDE\ARMADILLO_BITS\FN_STRANS.HPP
C:\USERS\ED\DESKTOP\ARMADILLO-7.400.2\INCLUDE\ARMADILLO_BITS\FN_CHOL.HPP
C:\USERS\ED\DESKTOP\ARMADILLO-7.400.2\INCLUDE\ARMADILLO_BITS\FN_QR.HPP
C:\USERS\ED\DESKTOP\ARMADILLO-7.400.2\INCLUDE\ARMADILLO_BITS\FN_SVD.HPP
C:\USERS\ED\DESKTOP\ARMADILLO-7.400.2\INCLUDE\ARMADILLO_BITS\FN_SOLVE.HPP
C:\USERS\ED\DESKTOP\ARMADILLO-7.400.2\INCLUDE\ARMADILLO_BITS\FN_REPMAT.HPP
C:\USERS\ED\DESKTOP\ARMADILLO-7.400.2\INCLUDE\ARMADILLO_BITS\FN_RESHAPE.HPP
C:\USERS\ED\DESKTOP\ARMADILLO-7.400.2\INCLUDE\ARMADILLO_BITS\FN_VECTORISE.HPP
C:\USERS\ED\DESKTOP\ARMADILLO-7.400.2\INCLUDE\ARMADILLO_BITS\FN_RESIZE.HPP
C:\USERS\ED\DESKTOP\ARMADILLO-7.400.2\INCLUDE\ARMADILLO_BITS\FN_COV.HPP
C:\USERS\ED\DESKTOP\ARMADILLO-7.400.2\INCLUDE\ARMADILLO_BITS\FN_COR.HPP
C:\USERS\ED\DESKTOP\ARMADILLO-7.400.2\INCLUDE\ARMADILLO_BITS\FN_SHIFT.HPP
C:\USERS\ED\DESKTOP\ARMADILLO-7.400.2\INCLUDE\ARMADILLO_BITS\FN_SHUFFLE.HPP
C:\USERS\ED\DESKTOP\ARMADILLO-7.400.2\INCLUDE\ARMADILLO_BITS\FN_PROD.HPP
C:\USERS\ED\DESKTOP\ARMADILLO-7.400.2\INCLUDE\ARMADILLO_BITS\FN_EPS.HPP
C:\USERS\ED\DESKTOP\ARMADILLO-7.400.2\INCLUDE\ARMADILLO_BITS\FN_PINV.HPP
C:\USERS\ED\DESKTOP\ARMADILLO-7.400.2\INCLUDE\ARMADILLO_BITS\FN_RANK.HPP
C:\USERS\ED\DESKTOP\ARMADILLO-7.400.2\INCLUDE\ARMADILLO_BITS\FN_KRON.HPP
C:\USERS\ED\DESKTOP\ARMADILLO-7.400.2\INCLUDE\ARMADILLO_BITS\FN_FLIP.HPP
C:\USERS\ED\DESKTOP\ARMADILLO-7.400.2\INCLUDE\ARMADILLO_BITS\FN_AS_SCALAR.HPP
C:\USERS\ED\DESKTOP\ARMADILLO-7.400.2\INCLUDE\ARMADILLO_BITS\FN_PRINCOMP.HPP
C:\USERS\ED\DESKTOP\ARMADILLO-7.400.2\INCLUDE\ARMADILLO_BITS\FN_CROSS.HPP
C:\USERS\ED\DESKTOP\ARMADILLO-7.400.2\INCLUDE\ARMADILLO_BITS\FN_JOIN.HPP
C:\USERS\ED\DESKTOP\ARMADILLO-7.400.2\INCLUDE\ARMADILLO_BITS\FN_CONV.HPP
C:\USERS\ED\DESKTOP\ARMADILLO-7.400.2\INCLUDE\ARMADILLO_BITS\FN_TRUNC_EXP.HPP
C:\USERS\ED\DESKTOP\ARMADILLO-7.400.2\INCLUDE\ARMADILLO_BITS\FN_TRUNC_LOG.HPP
C:\USERS\ED\DESKTOP\ARMADILLO-7.400.2\INCLUDE\ARMADILLO_BITS\FN_TOEPLITZ.HPP
C:\USERS\ED\DESKTOP\ARMADILLO-7.400.2\INCLUDE\ARMADILLO_BITS\FN_TRIMAT.HPP
C:\USERS\ED\DESKTOP\ARMADILLO-7.400.2\INCLUDE\ARMADILLO_BITS\FN_CUMSUM.HPP
C:\USERS\ED\DESKTOP\ARMADILLO-7.400.2\INCLUDE\ARMADILLO_BITS\FN_CUMPROD.HPP
C:\USERS\ED\DESKTOP\ARMADILLO-7.400.2\INCLUDE\ARMADILLO_BITS\FN_SYMMAT.HPP
C:\USERS\ED\DESKTOP\ARMADILLO-7.400.2\INCLUDE\ARMADILLO_BITS\FN_SYL_LYAP.HPP
C:\USERS\ED\DESKTOP\ARMADILLO-7.400.2\INCLUDE\ARMADILLO_BITS\FN_HIST.HPP
C:\USERS\ED\DESKTOP\ARMADILLO-7.400.2\INCLUDE\ARMADILLO_BITS\FN_HISTC.HPP
C:\USERS\ED\DESKTOP\ARMADILLO-7.400.2\INCLUDE\ARMADILLO_BITS\FN_UNIQUE.HPP
C:\USERS\ED\DESKTOP\ARMADILLO-7.400.2\INCLUDE\ARMADILLO_BITS\FN_FFT.HPP
C:\USERS\ED\DESKTOP\ARMADILLO-7.400.2\INCLUDE\ARMADILLO_BITS\FN_FFT2.HPP
C:\USERS\ED\DESKTOP\ARMADILLO-7.400.2\INCLUDE\ARMADILLO_BITS\FN_ANY.HPP
C:\USERS\ED\DESKTOP\ARMADILLO-7.400.2\INCLUDE\ARMADILLO_BITS\FN_ALL.HPP
C:\USERS\ED\DESKTOP\ARMADILLO-7.400.2\INCLUDE\ARMADILLO_BITS\FN_SIZE.HPP
C:\USERS\ED\DESKTOP\ARMADILLO-7.400.2\INCLUDE\ARMADILLO_BITS\FN_NUMEL.HPP
C:\USERS\ED\DESKTOP\ARMADILLO-7.400.2\INCLUDE\ARMADILLO_BITS\FN_INPLACE_STRANS.HPP
C:\USERS\ED\DESKTOP\ARMADILLO-7.400.2\INCLUDE\ARMADILLO_BITS\FN_INPLACE_TRANS.HPP
C:\USERS\ED\DESKTOP\ARMADILLO-7.400.2\INCLUDE\ARMADILLO_BITS\FN_RANDI.HPP
C:\USERS\ED\DESKTOP\ARMADILLO-7.400.2\INCLUDE\ARMADILLO_BITS\FN_RANDG.HPP
C:\USERS\ED\DESKTOP\ARMADILLO-7.400.2\INCLUDE\ARMADILLO_BITS\FN_COND.HPP
C:\USERS\ED\DESKTOP\ARMADILLO-7.400.2\INCLUDE\ARMADILLO_BITS\FN_NORMALISE.HPP
C:\USERS\ED\DESKTOP\ARMADILLO-7.400.2\INCLUDE\ARMADILLO_BITS\FN_CLAMP.HPP
C:\USERS\ED\DESKTOP\ARMADILLO-7.400.2\INCLUDE\ARMADILLO_BITS\FN_EXPMAT.HPP
C:\USERS\ED\DESKTOP\ARMADILLO-7.400.2\INCLUDE\ARMADILLO_BITS\FN_NONZEROS.HPP
C:\USERS\ED\DESKTOP\ARMADILLO-7.400.2\INCLUDE\ARMADILLO_BITS\FN_INTERP1.HPP
C:\USERS\ED\DESKTOP\ARMADILLO-7.400.2\INCLUDE\ARMADILLO_BITS\FN_QZ.HPP
C:\USERS\ED\DESKTOP\ARMADILLO-7.400.2\INCLUDE\ARMADILLO_BITS\FN_DIFF.HPP
C:\USERS\ED\DESKTOP\ARMADILLO-7.400.2\INCLUDE\ARMADILLO_BITS\FN_SCHUR.HPP
C:\USERS\ED\DESKTOP\ARMADILLO-7.400.2\INCLUDE\ARMADILLO_BITS\FN_KMEANS.HPP
C:\USERS\ED\DESKTOP\ARMADILLO-7.400.2\INCLUDE\ARMADILLO_BITS\FN_SQRTMAT.HPP
C:\USERS\ED\DESKTOP\ARMADILLO-7.400.2\INCLUDE\ARMADILLO_BITS\FN_LOGMAT.HPP
C:\USERS\ED\DESKTOP\ARMADILLO-7.400.2\INCLUDE\ARMADILLO_BITS\FN_TRAPZ.HPP
C:\USERS\ED\DESKTOP\ARMADILLO-7.400.2\INCLUDE\ARMADILLO_BITS\FN_SPEYE.HPP
C:\USERS\ED\DESKTOP\ARMADILLO-7.400.2\INCLUDE\ARMADILLO_BITS\FN_SPONES.HPP
C:\USERS\ED\DESKTOP\ARMADILLO-7.400.2\INCLUDE\ARMADILLO_BITS\FN_SPRANDN.HPP
C:\USERS\ED\DESKTOP\ARMADILLO-7.400.2\INCLUDE\ARMADILLO_BITS\FN_SPRANDU.HPP
C:\USERS\ED\DESKTOP\ARMADILLO-7.400.2\INCLUDE\ARMADILLO_BITS\FN_EIGS_SYM.HPP
C:\USERS\ED\DESKTOP\ARMADILLO-7.400.2\INCLUDE\ARMADILLO_BITS\FN_EIGS_GEN.HPP
C:\USERS\ED\DESKTOP\ARMADILLO-7.400.2\INCLUDE\ARMADILLO_BITS\FN_SPSOLVE.HPP
C:\USERS\ED\DESKTOP\ARMADILLO-7.400.2\INCLUDE\ARMADILLO_BITS\FN_SVDS.HPP
C:\USERS\ED\DESKTOP\ARMADILLO-7.400.2\INCLUDE\ARMADILLO_BITS\HDF5_MISC.HPP
C:\USERS\ED\DESKTOP\ARMADILLO-7.400.2\INCLUDE\ARMADILLO_BITS\FFT_ENGINE.HPP
C:\USERS\ED\DESKTOP\ARMADILLO-7.400.2\INCLUDE\ARMADILLO_BITS\MUL_GEMV.HPP
C:\USERS\ED\DESKTOP\ARMADILLO-7.400.2\INCLUDE\ARMADILLO_BITS\MUL_GEMM.HPP
C:\USERS\ED\DESKTOP\ARMADILLO-7.400.2\INCLUDE\ARMADILLO_BITS\MUL_GEMM_MIXED.HPP
C:\USERS\ED\DESKTOP\ARMADILLO-7.400.2\INCLUDE\ARMADILLO_BITS\MUL_SYRK.HPP
C:\USERS\ED\DESKTOP\ARMADILLO-7.400.2\INCLUDE\ARMADILLO_BITS\MUL_HERK.HPP
C:\USERS\ED\DESKTOP\ARMADILLO-7.400.2\INCLUDE\ARMADILLO_BITS\EOP_CORE_MEAT.HPP
C:\USERS\ED\DESKTOP\ARMADILLO-7.400.2\INCLUDE\ARMADILLO_BITS\EGLUE_CORE_MEAT.HPP
C:\USERS\ED\DESKTOP\ARMADILLO-7.400.2\INCLUDE\ARMADILLO_BITS\COND_REL_MEAT.HPP
C:\USERS\ED\DESKTOP\ARMADILLO-7.400.2\INCLUDE\ARMADILLO_BITS\ARRAYOPS_MEAT.HPP
C:\USERS\ED\DESKTOP\ARMADILLO-7.400.2\INCLUDE\ARMADILLO_BITS\PODARRAY_MEAT.HPP
C:\USERS\ED\DESKTOP\ARMADILLO-7.400.2\INCLUDE\ARMADILLO_BITS\AUXLIB_MEAT.HPP
C:\USERS\ED\DESKTOP\ARMADILLO-7.400.2\INCLUDE\ARMADILLO_BITS\SP_AUXLIB_MEAT.HPP
C:\USERS\ED\DESKTOP\ARMADILLO-7.400.2\INCLUDE\ARMADILLO_BITS\INJECTOR_MEAT.HPP
C:\USERS\ED\DESKTOP\ARMADILLO-7.400.2\INCLUDE\ARMADILLO_BITS\MAT_MEAT.HPP
C:\USERS\ED\DESKTOP\ARMADILLO-7.400.2\INCLUDE\ARMADILLO_BITS\COL_MEAT.HPP
C:\USERS\ED\DESKTOP\ARMADILLO-7.400.2\INCLUDE\ARMADILLO_BITS\ROW_MEAT.HPP
C:\USERS\ED\DESKTOP\ARMADILLO-7.400.2\INCLUDE\ARMADILLO_BITS\CUBE_MEAT.HPP
C:\USERS\ED\DESKTOP\ARMADILLO-7.400.2\INCLUDE\ARMADILLO_BITS\XVEC_HTRANS_MEAT.HPP
C:\USERS\ED\DESKTOP\ARMADILLO-7.400.2\INCLUDE\ARMADILLO_BITS\XTRANS_MAT_MEAT.HPP
C:\USERS\ED\DESKTOP\ARMADILLO-7.400.2\INCLUDE\ARMADILLO_BITS\SIZEMAT_MEAT.HPP
C:\USERS\ED\DESKTOP\ARMADILLO-7.400.2\INCLUDE\ARMADILLO_BITS\SIZECUBE_MEAT.HPP
C:\USERS\ED\DESKTOP\ARMADILLO-7.400.2\INCLUDE\ARMADILLO_BITS\FIELD_MEAT.HPP
C:\USERS\ED\DESKTOP\ARMADILLO-7.400.2\INCLUDE\ARMADILLO_BITS\SUBVIEW_MEAT.HPP
C:\USERS\ED\DESKTOP\ARMADILLO-7.400.2\INCLUDE\ARMADILLO_BITS\SUBVIEW_ELEM1_MEAT.HPP
C:\USERS\ED\DESKTOP\ARMADILLO-7.400.2\INCLUDE\ARMADILLO_BITS\SUBVIEW_ELEM2_MEAT.HPP
C:\USERS\ED\DESKTOP\ARMADILLO-7.400.2\INCLUDE\ARMADILLO_BITS\SUBVIEW_FIELD_MEAT.HPP
C:\USERS\ED\DESKTOP\ARMADILLO-7.400.2\INCLUDE\ARMADILLO_BITS\SUBVIEW_CUBE_MEAT.HPP
C:\USERS\ED\DESKTOP\ARMADILLO-7.400.2\INCLUDE\ARMADILLO_BITS\DIAGVIEW_MEAT.HPP
C:\USERS\ED\DESKTOP\ARMADILLO-7.400.2\INCLUDE\ARMADILLO_BITS\SUBVIEW_EACH_MEAT.HPP
C:\USERS\ED\DESKTOP\ARMADILLO-7.400.2\INCLUDE\ARMADILLO_BITS\SUBVIEW_CUBE_EACH_MEAT.HPP
C:\USERS\ED\DESKTOP\ARMADILLO-7.400.2\INCLUDE\ARMADILLO_BITS\SPVALPROXY_MEAT.HPP
C:\USERS\ED\DESKTOP\ARMADILLO-7.400.2\INCLUDE\ARMADILLO_BITS\SPMAT_MEAT.HPP
C:\USERS\ED\DESKTOP\ARMADILLO-7.400.2\INCLUDE\ARMADILLO_BITS\SPMAT_ITERATORS_MEAT.HPP
C:\USERS\ED\DESKTOP\ARMADILLO-7.400.2\INCLUDE\ARMADILLO_BITS\SPCOL_MEAT.HPP
C:\USERS\ED\DESKTOP\ARMADILLO-7.400.2\INCLUDE\ARMADILLO_BITS\SPROW_MEAT.HPP
C:\USERS\ED\DESKTOP\ARMADILLO-7.400.2\INCLUDE\ARMADILLO_BITS\SPSUBVIEW_MEAT.HPP
C:\USERS\ED\DESKTOP\ARMADILLO-7.400.2\INCLUDE\ARMADILLO_BITS\SPSUBVIEW_ITERATORS_MEAT.HPP
C:\USERS\ED\DESKTOP\ARMADILLO-7.400.2\INCLUDE\ARMADILLO_BITS\SPDIAGVIEW_MEAT.HPP
C:\USERS\ED\DESKTOP\ARMADILLO-7.400.2\INCLUDE\ARMADILLO_BITS\DISKIO_MEAT.HPP
C:\USERS\ED\DESKTOP\ARMADILLO-7.400.2\INCLUDE\ARMADILLO_BITS\WALL_CLOCK_MEAT.HPP
C:\USERS\ED\DESKTOP\ARMADILLO-7.400.2\INCLUDE\ARMADILLO_BITS\RUNNING_STAT_MEAT.HPP
C:\USERS\ED\DESKTOP\ARMADILLO-7.400.2\INCLUDE\ARMADILLO_BITS\RUNNING_STAT_VEC_MEAT.HPP
C:\USERS\ED\DESKTOP\ARMADILLO-7.400.2\INCLUDE\ARMADILLO_BITS\OP_DIAGMAT_MEAT.HPP
C:\USERS\ED\DESKTOP\ARMADILLO-7.400.2\INCLUDE\ARMADILLO_BITS\OP_DIAGVEC_MEAT.HPP
C:\USERS\ED\DESKTOP\ARMADILLO-7.400.2\INCLUDE\ARMADILLO_BITS\OP_DOT_MEAT.HPP
C:\USERS\ED\DESKTOP\ARMADILLO-7.400.2\INCLUDE\ARMADILLO_BITS\OP_INV_MEAT.HPP
C:\USERS\ED\DESKTOP\ARMADILLO-7.400.2\INCLUDE\ARMADILLO_BITS\OP_HTRANS_MEAT.HPP
C:\USERS\ED\DESKTOP\ARMADILLO-7.400.2\INCLUDE\ARMADILLO_BITS\OP_MAX_MEAT.HPP
C:\USERS\ED\DESKTOP\ARMADILLO-7.400.2\INCLUDE\ARMADILLO_BITS\OP_INDEX_MAX_MEAT.HPP
C:\USERS\ED\DESKTOP\ARMADILLO-7.400.2\INCLUDE\ARMADILLO_BITS\OP_INDEX_MIN_MEAT.HPP
C:\USERS\ED\DESKTOP\ARMADILLO-7.400.2\INCLUDE\ARMADILLO_BITS\OP_MIN_MEAT.HPP
C:\USERS\ED\DESKTOP\ARMADILLO-7.400.2\INCLUDE\ARMADILLO_BITS\OP_MEAN_MEAT.HPP
C:\USERS\ED\DESKTOP\ARMADILLO-7.400.2\INCLUDE\ARMADILLO_BITS\OP_MEDIAN_MEAT.HPP
C:\USERS\ED\DESKTOP\ARMADILLO-7.400.2\INCLUDE\ARMADILLO_BITS\OP_SORT_MEAT.HPP
C:\USERS\ED\DESKTOP\ARMADILLO-7.400.2\INCLUDE\ARMADILLO_BITS\OP_SORT_INDEX_MEAT.HPP
C:\USERS\ED\DESKTOP\ARMADILLO-7.400.2\INCLUDE\ARMADILLO_BITS\OP_SUM_MEAT.HPP
C:\USERS\ED\DESKTOP\ARMADILLO-7.400.2\INCLUDE\ARMADILLO_BITS\OP_STDDEV_MEAT.HPP
C:\USERS\ED\DESKTOP\ARMADILLO-7.400.2\INCLUDE\ARMADILLO_BITS\OP_STRANS_MEAT.HPP
C:\USERS\ED\DESKTOP\ARMADILLO-7.400.2\INCLUDE\ARMADILLO_BITS\OP_VAR_MEAT.HPP
C:\USERS\ED\DESKTOP\ARMADILLO-7.400.2\INCLUDE\ARMADILLO_BITS\OP_REPMAT_MEAT.HPP
C:\USERS\ED\DESKTOP\ARMADILLO-7.400.2\INCLUDE\ARMADILLO_BITS\OP_RESHAPE_MEAT.HPP
C:\USERS\ED\DESKTOP\ARMADILLO-7.400.2\INCLUDE\ARMADILLO_BITS\OP_VECTORISE_MEAT.HPP
C:\USERS\ED\DESKTOP\ARMADILLO-7.400.2\INCLUDE\ARMADILLO_BITS\OP_RESIZE_MEAT.HPP
C:\USERS\ED\DESKTOP\ARMADILLO-7.400.2\INCLUDE\ARMADILLO_BITS\OP_COV_MEAT.HPP
C:\USERS\ED\DESKTOP\ARMADILLO-7.400.2\INCLUDE\ARMADILLO_BITS\OP_COR_MEAT.HPP
C:\USERS\ED\DESKTOP\ARMADILLO-7.400.2\INCLUDE\ARMADILLO_BITS\OP_SHIFT_MEAT.HPP
C:\USERS\ED\DESKTOP\ARMADILLO-7.400.2\INCLUDE\ARMADILLO_BITS\OP_SHUFFLE_MEAT.HPP
C:\USERS\ED\DESKTOP\ARMADILLO-7.400.2\INCLUDE\ARMADILLO_BITS\OP_PROD_MEAT.HPP
C:\USERS\ED\DESKTOP\ARMADILLO-7.400.2\INCLUDE\ARMADILLO_BITS\OP_PINV_MEAT.HPP
C:\USERS\ED\DESKTOP\ARMADILLO-7.400.2\INCLUDE\ARMADILLO_BITS\OP_DOTEXT_MEAT.HPP
C:\USERS\ED\DESKTOP\ARMADILLO-7.400.2\INCLUDE\ARMADILLO_BITS\OP_FLIP_MEAT.HPP
C:\USERS\ED\DESKTOP\ARMADILLO-7.400.2\INCLUDE\ARMADILLO_BITS\OP_PRINCOMP_MEAT.HPP
C:\USERS\ED\DESKTOP\ARMADILLO-7.400.2\INCLUDE\ARMADILLO_BITS\OP_MISC_MEAT.HPP
C:\USERS\ED\DESKTOP\ARMADILLO-7.400.2\INCLUDE\ARMADILLO_BITS\OP_ORTH_NULL_MEAT.HPP
C:\USERS\ED\DESKTOP\ARMADILLO-7.400.2\INCLUDE\ARMADILLO_BITS\OP_RELATIONAL_MEAT.HPP
C:\USERS\ED\DESKTOP\ARMADILLO-7.400.2\INCLUDE\ARMADILLO_BITS\OP_FIND_MEAT.HPP
C:\USERS\ED\DESKTOP\ARMADILLO-7.400.2\INCLUDE\ARMADILLO_BITS\OP_FIND_UNIQUE_MEAT.HPP
C:\USERS\ED\DESKTOP\ARMADILLO-7.400.2\INCLUDE\ARMADILLO_BITS\OP_CHOL_MEAT.HPP
C:\USERS\ED\DESKTOP\ARMADILLO-7.400.2\INCLUDE\ARMADILLO_BITS\OP_CX_SCALAR_MEAT.HPP
C:\USERS\ED\DESKTOP\ARMADILLO-7.400.2\INCLUDE\ARMADILLO_BITS\OP_TRIMAT_MEAT.HPP
C:\USERS\ED\DESKTOP\ARMADILLO-7.400.2\INCLUDE\ARMADILLO_BITS\OP_CUMSUM_MEAT.HPP
C:\USERS\ED\DESKTOP\ARMADILLO-7.400.2\INCLUDE\ARMADILLO_BITS\OP_CUMPROD_MEAT.HPP
C:\USERS\ED\DESKTOP\ARMADILLO-7.400.2\INCLUDE\ARMADILLO_BITS\OP_SYMMAT_MEAT.HPP
C:\USERS\ED\DESKTOP\ARMADILLO-7.400.2\INCLUDE\ARMADILLO_BITS\OP_HIST_MEAT.HPP
C:\USERS\ED\DESKTOP\ARMADILLO-7.400.2\INCLUDE\ARMADILLO_BITS\OP_UNIQUE_MEAT.HPP
C:\USERS\ED\DESKTOP\ARMADILLO-7.400.2\INCLUDE\ARMADILLO_BITS\OP_TOEPLITZ_MEAT.HPP
C:\USERS\ED\DESKTOP\ARMADILLO-7.400.2\INCLUDE\ARMADILLO_BITS\OP_FFT_MEAT.HPP
C:\USERS\ED\DESKTOP\ARMADILLO-7.400.2\INCLUDE\ARMADILLO_BITS\OP_ANY_MEAT.HPP
C:\USERS\ED\DESKTOP\ARMADILLO-7.400.2\INCLUDE\ARMADILLO_BITS\OP_ALL_MEAT.HPP
C:\USERS\ED\DESKTOP\ARMADILLO-7.400.2\INCLUDE\ARMADILLO_BITS\OP_NORMALISE_MEAT.HPP
C:\USERS\ED\DESKTOP\ARMADILLO-7.400.2\INCLUDE\ARMADILLO_BITS\OP_CLAMP_MEAT.HPP
C:\USERS\ED\DESKTOP\ARMADILLO-7.400.2\INCLUDE\ARMADILLO_BITS\OP_EXPMAT_MEAT.HPP
C:\USERS\ED\DESKTOP\ARMADILLO-7.400.2\INCLUDE\ARMADILLO_BITS\OP_NONZEROS_MEAT.HPP
C:\USERS\ED\DESKTOP\ARMADILLO-7.400.2\INCLUDE\ARMADILLO_BITS\OP_DIFF_MEAT.HPP
C:\USERS\ED\DESKTOP\ARMADILLO-7.400.2\INCLUDE\ARMADILLO_BITS\OP_NORM_MEAT.HPP
C:\USERS\ED\DESKTOP\ARMADILLO-7.400.2\INCLUDE\ARMADILLO_BITS\OP_SQRTMAT_MEAT.HPP
C:\USERS\ED\DESKTOP\ARMADILLO-7.400.2\INCLUDE\ARMADILLO_BITS\OP_LOGMAT_MEAT.HPP
C:\USERS\ED\DESKTOP\ARMADILLO-7.400.2\INCLUDE\ARMADILLO_BITS\GLUE_TIMES_MEAT.HPP
C:\USERS\ED\DESKTOP\ARMADILLO-7.400.2\INCLUDE\ARMADILLO_BITS\GLUE_MIXED_MEAT.HPP
C:\USERS\ED\DESKTOP\ARMADILLO-7.400.2\INCLUDE\ARMADILLO_BITS\GLUE_COV_MEAT.HPP
C:\USERS\ED\DESKTOP\ARMADILLO-7.400.2\INCLUDE\ARMADILLO_BITS\GLUE_COR_MEAT.HPP
C:\USERS\ED\DESKTOP\ARMADILLO-7.400.2\INCLUDE\ARMADILLO_BITS\GLUE_KRON_MEAT.HPP
C:\USERS\ED\DESKTOP\ARMADILLO-7.400.2\INCLUDE\ARMADILLO_BITS\GLUE_CROSS_MEAT.HPP
C:\USERS\ED\DESKTOP\ARMADILLO-7.400.2\INCLUDE\ARMADILLO_BITS\GLUE_JOIN_MEAT.HPP
C:\USERS\ED\DESKTOP\ARMADILLO-7.400.2\INCLUDE\ARMADILLO_BITS\GLUE_RELATIONAL_MEAT.HPP
C:\USERS\ED\DESKTOP\ARMADILLO-7.400.2\INCLUDE\ARMADILLO_BITS\GLUE_SOLVE_MEAT.HPP
C:\USERS\ED\DESKTOP\ARMADILLO-7.400.2\INCLUDE\ARMADILLO_BITS\GLUE_CONV_MEAT.HPP
C:\USERS\ED\DESKTOP\ARMADILLO-7.400.2\INCLUDE\ARMADILLO_BITS\GLUE_TOEPLITZ_MEAT.HPP
C:\USERS\ED\DESKTOP\ARMADILLO-7.400.2\INCLUDE\ARMADILLO_BITS\GLUE_HIST_MEAT.HPP
C:\USERS\ED\DESKTOP\ARMADILLO-7.400.2\INCLUDE\ARMADILLO_BITS\GLUE_HISTC_MEAT.HPP
C:\USERS\ED\DESKTOP\ARMADILLO-7.400.2\INCLUDE\ARMADILLO_BITS\GLUE_MAX_MEAT.HPP
C:\USERS\ED\DESKTOP\ARMADILLO-7.400.2\INCLUDE\ARMADILLO_BITS\GLUE_MIN_MEAT.HPP
C:\USERS\ED\DESKTOP\ARMADILLO-7.400.2\INCLUDE\ARMADILLO_BITS\GLUE_TRAPZ_MEAT.HPP
C:\USERS\ED\DESKTOP\ARMADILLO-7.400.2\INCLUDE\ARMADILLO_BITS\GMM_MISC_MEAT.HPP
C:\USERS\ED\DESKTOP\ARMADILLO-7.400.2\INCLUDE\ARMADILLO_BITS\GMM_DIAG_MEAT.HPP
C:\USERS\ED\DESKTOP\ARMADILLO-7.400.2\INCLUDE\ARMADILLO_BITS\SPOP_MAX_MEAT.HPP
C:\USERS\ED\DESKTOP\ARMADILLO-7.400.2\INCLUDE\ARMADILLO_BITS\SPOP_MIN_MEAT.HPP
C:\USERS\ED\DESKTOP\ARMADILLO-7.400.2\INCLUDE\ARMADILLO_BITS\SPOP_SUM_MEAT.HPP
C:\USERS\ED\DESKTOP\ARMADILLO-7.400.2\INCLUDE\ARMADILLO_BITS\SPOP_STRANS_MEAT.HPP
C:\USERS\ED\DESKTOP\ARMADILLO-7.400.2\INCLUDE\ARMADILLO_BITS\SPOP_HTRANS_MEAT.HPP
C:\USERS\ED\DESKTOP\ARMADILLO-7.400.2\INCLUDE\ARMADILLO_BITS\SPOP_MISC_MEAT.HPP
C:\USERS\ED\DESKTOP\ARMADILLO-7.400.2\INCLUDE\ARMADILLO_BITS\SPOP_DIAGMAT_MEAT.HPP
C:\USERS\ED\DESKTOP\ARMADILLO-7.400.2\INCLUDE\ARMADILLO_BITS\SPOP_MEAN_MEAT.HPP
C:\USERS\ED\DESKTOP\ARMADILLO-7.400.2\INCLUDE\ARMADILLO_BITS\SPOP_VAR_MEAT.HPP
C:\USERS\ED\DESKTOP\ARMADILLO-7.400.2\INCLUDE\ARMADILLO_BITS\SPGLUE_PLUS_MEAT.HPP
C:\USERS\ED\DESKTOP\ARMADILLO-7.400.2\INCLUDE\ARMADILLO_BITS\SPGLUE_MINUS_MEAT.HPP
C:\USERS\ED\DESKTOP\ARMADILLO-7.400.2\INCLUDE\ARMADILLO_BITS\SPGLUE_TIMES_MEAT.HPP
C:\USERS\ED\DESKTOP\ARMADILLO-7.400.2\INCLUDE\ARMADILLO_BITS\SPGLUE_JOIN_MEAT.HPP
C:\USERS\ED\DESKTOP\ARMADILLO-7.400.2\INCLUDE\ARMADILLO_BITS\NEWARP_CX_ATTRIB.HPP
C:\USERS\ED\DESKTOP\ARMADILLO-7.400.2\INCLUDE\ARMADILLO_BITS\NEWARP_SORTEIGENVALUE.HPP
C:\USERS\ED\DESKTOP\ARMADILLO-7.400.2\INCLUDE\ARMADILLO_BITS\NEWARP_DENSEGENMATPROD_MEAT.HPP
C:\USERS\ED\DESKTOP\ARMADILLO-7.400.2\INCLUDE\ARMADILLO_BITS\NEWARP_SPARSEGENMATPROD_MEAT.HPP
C:\USERS\ED\DESKTOP\ARMADILLO-7.400.2\INCLUDE\ARMADILLO_BITS\NEWARP_DOUBLESHIFTQR_MEAT.HPP
C:\USERS\ED\DESKTOP\ARMADILLO-7.400.2\INCLUDE\ARMADILLO_BITS\NEWARP_GENEIGSSOLVER_MEAT.HPP
C:\USERS\ED\DESKTOP\ARMADILLO-7.400.2\INCLUDE\ARMADILLO_BITS\NEWARP_SYMEIGSSOLVER_MEAT.HPP
C:\USERS\ED\DESKTOP\ARMADILLO-7.400.2\INCLUDE\ARMADILLO_BITS\NEWARP_TRIDIAGEIGEN_MEAT.HPP
C:\USERS\ED\DESKTOP\ARMADILLO-7.400.2\INCLUDE\ARMADILLO_BITS\NEWARP_UPPERHESSENBERGEIGEN_MEAT.HPP
C:\USERS\ED\DESKTOP\ARMADILLO-7.400.2\INCLUDE\ARMADILLO_BITS\NEWARP_UPPERHESSENBERGQR_MEAT.HPP
C:\USERS\ED\DESKTOP\ARMADILLO-7.400.2\INCLUDE\ARMADILLO_BITS\COMPILER_SETUP_POST.HPP
